{
    "__reference_data_version__": "0.1",
    "cases": {
        "0": {
            "description": "Attestation flow of a self claim set, encrypting with AES256-GCM.",
            "data": {
                "jwks": {
                    "harry_sig_full": {
                        "kty": "OKP",
                        "crv": "Ed25519",
                        "d": "nWGxne_9WmC6hEr0kuwsxERJxWl7MmkZcDusAxyuf2A",
                        "x": "11qYAYKxCrfVS_7TyWQHOg7hcvPapiMlrwIaaPcHURo",
                        "kid": "Harry James Potter (student)"
                    },
                    "harry_sig_pub": {
                        "kty": "OKP",
                        "crv": "Ed25519",
                        "x": "11qYAYKxCrfVS_7TyWQHOg7hcvPapiMlrwIaaPcHURo",
                        "kid": "Harry James Potter (student)"
                    },
                    "harry_enc_full": {
                        "kty": "OKP",
                        "crv": "X25519",
                        "d": "U7ZBkzSFDI7uUV0RfDmFaeHxUCnFaxaib9sypeLrJ-M",
                        "x": "U1GCoOv8N0lePEpZVL0eWEOxriqW_ikAnZdDq4nAn24",
                        "kid": "Harry James Potter (student)"
                    },
                    "harry_enc_pub": {
                        "kty": "OKP",
                        "crv": "X25519",
                        "x": "U1GCoOv8N0lePEpZVL0eWEOxriqW_ikAnZdDq4nAn24",
                        "kid": "Harry James Potter (student)"
                    },
                    "dumbledore_sig_full": {
                        "kty": "OKP",
                        "crv": "Ed25519",
                        "d": "Y-pua--r4vGiRcZieji_sdH5feNsRJgTXBEiOlEmfWc",
                        "x": "8TakswfV80LFiX_Ii1dJL9u4vqWlkhApKbo-v2i1uUc",
                        "kid": "Albus Percival Wulfric Brian Dumbledore (Headmaster)"
                    },
                    "dumbledore_sig_pub": {
                        "kty": "OKP",
                        "crv": "Ed25519",
                        "x": "8TakswfV80LFiX_Ii1dJL9u4vqWlkhApKbo-v2i1uUc",
                        "kid": "Albus Percival Wulfric Brian Dumbledore (Headmaster)"
                    },
                    "dumbledore_enc_full": {
                        "kty": "OKP",
                        "crv": "X25519",
                        "d": "vfoxXOfEJsZXwzgOVLEK7kmqgcaX0gXtYaEFD2tlwbA",
                        "x": "kVNmr6NqCs1mjtprt4sK01Is6J39jpprRz4Ky3Ig",
                        "kid": "Albus Percival Wulfric Brian Dumbledore (Headmaster)"
                    },
                    "dumbledore_enc_pub": {
                        "kty": "OKP",
                        "crv": "X25519",
                        "x": "kVNmr6NqCs1mjtprt4sK01Is6J39jpprRz4Ky3Ig",
                        "kid": "Albus Percival Wulfric Brian Dumbledore (Headmaster)"
                    }
                },
                "harry_claims": [
                    {
                        "@context": "http://schema.org",
                        "@type": "Person",
                        "familyName": "Potter"
                    },
                    {
                        "@context": "http://schema.org",
                        "@type": "Person",
                        "givenName": "Harry James"
                    },
                    {
                        "@context": "http://schema.org",
                        "@type": "Person",
                        "birthDate": "1980-07-31"
                    },
                    {
                        "@context": "http://schema.org",
                        "@type": "Person",
                        "address": {
                            "@type": "PostalAddress",
                            "streetAddress": "4 Privet Drive"
                        }
                    },
                    {
                        "@context": "http://schema.org",
                        "@type": "Person",
                        "address": {
                            "@type": "PostalAddress",
                            "addressLocality": "Little Whinging"
                        }
                    },
                    {
                        "@context": "http://schema.org",
                        "@type": "Person",
                        "address": {
                            "@type": "PostalAddress",
                            "postalCode": "BS13 9RN"
                        }
                    },
                    {
                        "@context": "http://schema.org",
                        "@type": "Person",
                        "address": {
                            "@type": "PostalAddress",
                            "addressRegion": "Surrey"
                        }
                    },
                    {
                        "@context": "http://schema.org",
                        "@type": "Person",
                        "address": {
                            "@type": "PostalAddress",
                            "addressCountry": "United Kingdom"
                        }
                    },
                    {
                        "@context": "http://schema.org",
                        "@type": "Person",
                        "address": {
                            "@type": "PostalAddress",
                            "telephone": "+44 555 325 1464"
                        }
                    }
                ],
                "harry_did": "did:ssid:2omXXXharryXXX...DeG",
                "attester_data": {
                    "provenance_namespaces": {
                        "hogwarts": "http://www.hogwarts.ac.uk/ns/prov#"
                    },
                    "attester": "did:ssid:2omXXXdumbledoreXXX...WEG",
                    "delegation_chain": [
                        "hogwarts:Organisation"
                    ]
                },
                "attestation_data": {
                    "provenance_namespaces": {
                        "nzta": "http://www.nzta.govt.nz/",
                        "watercare": "http://www.watercare.co.nz/"
                    },
                    "evidence_elements": {
                        "nzta:dl/DJ034005-v193": "original document",
                        "watercare:customers/4711/invoices/201809.pdf": "digital scan"
                    },
                    "evidence_verification": "kauriid:procedures/evidence_checks/ipns/QmdXXXcurrentmanualXXX...YgV",
                    "ancestors": [
                        {
                            "wrapper_uri": "kauriid:attestations/ipns/QmbXXXattestation01XXX...PTU",
                            "object_key": {
                                "kty": "oct",
                                "alg": "C20P",
                                "use": "enc",
                                "k": "AAAAAAAAAAAAAAAAAAAAAAAAAAAAAAAAAAAAAAAAACR"
                            },
                            "trace_key": {
                                "kty": "oct",
                                "alg": "C20P",
                                "use": "enc",
                                "k": "AAAAAAAAAAAAAAAAAAAAAAAAAAAAAAAAAAAAAAAAAAA"
                            },
                            "id": "kauriid:attestations/00000000-1111-2222-3333-444444444444"
                        }
                    ],
                    "statements": [
                        {
                            "ttl": 7776000,
                            "metadata": {
                                "kyc_compliance": "type 3",
                                "governance": "NZ, non-banking"
                            }
                        },
                        {
                            "exp": 1568622642,
                            "metadata": {
                                "kyc_compliance": null,
                                "governance": "NZ, non-banking"
                            }
                        }
                    ]
                }
            },
            "steps": [
                {
                    "step": 0,
                    "description": "Create a new self claim set and claim set keys object.",
                    "input": [
                        "data/harry_did",
                        "data/jwks/harry_sig_full",
                        "data/harry_claims"
                    ],
                    "output": {
                        "claim_set_keys": {
                            "claim_set": "eyJhbGciOiJkaXIiLCJlbmMiOiJBMjU2R0NNIn0..8PKpOZ5Dua1TFSEY.TWEV4Ee16BdZ49dXNzF-j1KnRK3L_vCBbRqVnSCFDdIpAjKva03LGBI1DYoIeZBLaRFpes_uuHudoHZxdbhL3-wg98YDV7ABcKW7A9KKtw_4yko26zPVXitDqPFFaLApcu0UffSNwaClcLCazz0GX5Fgeav5GGGrblfbKv7J9zW_rgkhuBPY4Wl3_TKKjM6IzrCLbysvFvp-H9QVNwXdeplVVvoM1F65PUdKiWL5GKxZnL0wYnWut9AaBo5iMbPwQ204uB1uxvEB5UYPTfd6YRT4WH-O3Q3cPBjdOzytqmBMwg6W8rlxGNHP4mjkSpHi3nZ3_0OTkFMPvp2YK9uQx26HxTbpymcSsLYFSNK4Krsbi4Z3iBsuib6c6bSc0pLWA9FVJGPk47gilSU2BBuEmW2ENf93LooAUG0hUQo3v2DpY0CYArsCoAQSg2LUU-f9f03Wtnrq_jBeRT_J5CFTyJrUo8fPy0ROOXvTGF46vSjEHETTmT2Ko6Dp8gkdRd9N2ad2duPbDZd-PZE7yTniQkv6Ivk8_-yfViXbufC0pRivFaYOvMrKsByx1lLPgYVlZp_gl331I97Y9b_xhEH8lmvV17mAL73SpadaGEs7Mb_oh0RQeOvcgbAxEOwpshD5Kq61WXPXMzoyzOPhrPJJS0IhwkdS9FAcHoh2FD_kwuJnN45iHa7bsOfmdFKZOZ_Y4TZ1okQ_Xi00QVCVcSmO8iqS1dJOe6zQcGpgmrdhta59VylYKryIZr24A334LNH-5uxA0UlwN-NWulLb-oTXhWwSDg1O57treLPEymzhsI6cKofH43ERCeKRRCa0_HKV1rnIIkdHaBkVIzK_woRjsIao3EGHZr30KSPMElbZCjyZWuwzSPbGw855_9zM8yvMpZIGP16o-j_O0I3CHauC6vmX_0vMS1kfylpZ2ouFNhS-lBxGqtsev3_tcLp6y1wNQ3AXe-Ev6bw_rJQWkCS2yRyAIfH3E0QZiecgKgoF_GHyTNO8fTQXjgPROM3tdv_mO0kfRlKAyiNQl8elgh06ykFduzXtLbk8vw8kT352r1PMzkgMXs24pLczFzbtTHuzw0z4fqoNOCjw7IIGRB1wNa8XaPVYIk-FloJuHgUH0TBlisCgVPaUlvvcSkDAPbPeO07-tdXf-wbq7wqpLVxOkpU3alq7FrhUoXEddDmxh8kVGikQWJu9I-ikUX2cok40QT5FXiZOwZchbp7X0q9wkFT0Z3X4pxqaGqL5PI9j_fGrOHMO6wHJJwlYM0ux17GdjO5g8g4qvarcDTKEZZrs2NZs93l0fPXCtZc8gc-7WLp7wha0urMl9N33SYFkeTv00NGuXLbPu4lHJt5p4ktsJSQ-tH193QpNV0l6bHGc7miGdrnJfn9omaH3RA4onpaLmf_l7ordPBhTpwZVpujHe_CnJDOtqNB_LxJo1Hr-O_q7XTO7sIl9FoHRk7uFux0PxCBbMDcJt_y-qjhyUN8CTzK-0uh3YYjK0QyQrhDzM_dXC4r1r43L8E-RS214YdlIbOkSJBkyLcY5S1WxZJ6K3E-giiMmgvjWBVj3a0hcDGWriO4QUwXlt0VRBi7YkG2TxSckccmRzvQhK4SJ-WqqUeVSvYif-uu2gC986RWSVD1xLZBhSo1zkJYjEahy56X5Th1bWhEsMwMzb_3gq-Z2cLJuBfJTa2ShnB5-B0AYP6JxoUwxk2q5vlJHShULpZwUSf3tcF9blwHH5-w4w6guzXjsirIeqiNYlpImf2BbVromiUfoNFXu7sQiQYyX61p5Z5PB5m561r5-9qTVVLwkU7OPg9a1cyG5A-MMprobeFoBDRkkLM6zHTanlCZ-DhKiI_Y-6cXOak1SvwXFQzyHj7CFDQvbUTABnysZEUpDAl5DrFrZnQalheTwuZ-ApizBO7j_y0qtkLMQLYLQlw8wbMKkCfNlhrb4B1LpXCSOXJtIaVXxpFp9ep6ELSR0iWDpGbKN8YTgjQosvzlx1QQB6YVBK_iaJ2LYdnfzqMQ5t2EB6QyhLDh05gm0QXucQ3bVqUUp_iv-uOU6aNML56qBdR_96v3YOUUCmJDg3_u-GFsdnC4KGcfnk9FlEpBi_b0b6v8OrNx2LnOVWeSj-HIMtMfoh9fSsUVXAEt4tYP-GOZajyw5jHsF6svAin9tAytIp6qbzq11pzuFhts53N1tgyh-Re3D93ZkgV5dali8kTVDpEDlQSI5R608thloiPSfm9MYgk1it0IrIuRJ95YWj8-UT2LVrUZ9qy0TEpwcw4LEyXotmkvT2FUXMn52R29yd5DIcoDZyoNIYlDh_ISzf0SINY4S97lLLbHk4YOimsKfz-aol49XHEJnSRcZbf8Bi5N-Y7Tt24nsI_suD--PLBMIwJ8HWW_Fq9CBmWZ5QfZZZkSIbIqzdBCH3Ko4twkYpSJQVBB9kE4ywqnPLTjsKLRZkQUB6F_mbyUjsRqE0zFx2qb25KvG3QqyWycl1ohBTSzaZpnqP4W9HyO69dIHi3fuDCa3uWBesqj_FaNwWw3bC7e3yykuMcp804WWrJFAR7MnjN8DBMZXPXF-CF3ft74ESf_E8T3tcCnYDvOxZNV5y1yK37Szxe7SucXge1gFTyUwCsbbaEARAc_1xZqOFb9Igq8kAGOlT0QGqgmdwI17F90MU3W-b8E482T-Ti_48pSLYL0Sjitpn-_9X6F_uALj8CRMAOrx_ju2PJX8J-IXYA0pWAl0TtkAreJi2bdq9orHGrHg3b4SSfXSxL7jvUR3CGQ1DiVxhLlIOVBgZldZnx5oNdM8DkaMdvazzEuQQXOEtzg7kCia35KOMBxv7bAxXzMp0ce1_v2Psf-D1gt-QBFFN_U_OKXRjDNXiopmWH7UgzoVHLHM9z8wOKtjos7ruEwfp0tVykrp2OsahIJfrPCQ3GrgFUmx1o0KB7QxbXr5k69btUWKsPFplA_mYBrfFYP_fXCQPo_Y7DqPntXD-5vVORcNej0wCJ2w9Tb17yfhJ5xqsFRP8YrY4zSNjuhSFETV88DdtxnPbhXH8SVqxgY9e7wt591XZTKNraXFMZiYZSO-JgE33vdz7gFkcpF6GHhK8JpOtRthgxCLWUYOa-o56FaUZjJetnClUZpeZ-ADp5JAHUz_fWjrYNBt6NHe6DBkl54dnHUwX1KySydP02vaS1UJfZumpRlheW03udE8laRh5nuAnUiFBCwrQuxUbvX_K8fjpibUB8PoTUBTw7fjHklwqwpTo0pFSrpKPU4v6tWiPlvEnARmY8pZ76pQjjoQZ0qAmx4WLm0TWr2pnre5RMUQqeWz2nCK7eQffIBUfwfYuqETjBeeMohUwFpUMUgHAt0jtAIQVvMcGD23U0_apmY9ey43p6ViU4dEtTjr5nXyv4USkBvNzNBrRgjAJ_aexWUnd9qfj5asr_Cn-BwGsXRpQqUxrlmDP31OUsEDBsQlDNQhwLs7WZKKw7zxR46PxZELFs2iElgyr8rx4PbiYUGzntXx-B29DsHPClE5bwaRaPHBhxlChXT7ReFYkW0SL5y6wKtxyF7thRIXNTPJ2bm_aQhfknUePCRcQU5b8r49HXCnEzTh6FdwqQSuMR6PHleNA_PL_mWvogQmF4ULHNgnM8GRJHsSme2_jD18sckutX5hwRqeNkVo-ZRKwsdZqYkG0wd3IRdR4UZC5KVxzHk0hd582e1XpzuRIbnVP7LoDzC39HYWtptjbavjBSPj7FqeB8bbdwV8SVLsXY7UAXkvZfP8AQtUPck4xeB4FHEoUt47u4aduArcFTtSNIPZybkapzbKCb1t92mMBWSOALuq7f3FpUnBKbSCv7I4mSIVPlQCxqFdHPwI3ONKdLLyEDrONNApFTPyruAaTq5HS3eRP6pPTRIjH-5hBiL7Um3-CmySjU3iYjsvqaEGJ3RdOHk3cm9iFZjQ6omJfOzngwUCutf9a35JqF97LCzBqpim2lw9WTBQT9VvFBf-luJwB1OXx-UZ6Sl-o2531N6-jcOSaCrvbAmDCPjDoE9ckDxwerbEnF9s-nAOwPVOltk4ZRoCzdnyXlUnZDp_EWINxpLxaBBNrOH-n_zIh3_Ud5L4qVPUXKlSP2k4u096xBA9a21Hd0eE2pYvU5Lo0_-WlfruJ4Smvch5-5RYwt3tDk3kbtJlYGbXyIvBX3ND.hbOAIBskJ-KOAoisi0JjwA",
                            "object_key": {
                                "kty": "oct",
                                "alg": "A256GCM",
                                "use": "enc",
                                "k": "A-qDs9afcHjG1YihBZ5RGJqCXQ3s5eO_3DA6ienHpTk"
                            },
                            "claim_keys": {
                                "0": {
                                    "kty": "oct",
                                    "alg": "A256GCM",
                                    "use": "enc",
                                    "k": "KsFXNBi1aNfSHFzsOuH2eeOnxmZnrk2s0Xn3MseWpmo"
                                },
                                "1": {
                                    "kty": "oct",
                                    "alg": "A256GCM",
                                    "use": "enc",
                                    "k": "gsfTRk6aaUsn6fRJR_TBGr-pvJVQnEczzPVVKFvvsdc"
                                },
                                "2": {
                                    "kty": "oct",
                                    "alg": "A256GCM",
                                    "use": "enc",
                                    "k": "abTHCKmTuJ-LY2OZzPt5ggPBpKyhXTT8hKW8j-EAsoc"
                                },
                                "3": {
                                    "kty": "oct",
                                    "alg": "A256GCM",
                                    "use": "enc",
                                    "k": "EX1OOyDRB64knYqcJLgn7_cuJleaxRlAKsyhl3mUhdE"
                                },
                                "4": {
                                    "kty": "oct",
                                    "alg": "A256GCM",
                                    "use": "enc",
                                    "k": "caKomNHLSQGbBwhWFc9WnFkvTK1J8ympaAuoLXkKo5U"
                                },
                                "5": {
                                    "kty": "oct",
                                    "alg": "A256GCM",
                                    "use": "enc",
                                    "k": "BcNmhkcF-DUlWjgmPGKQLGDo45cA5Bk9idPN_J0Ycjk"
                                },
                                "6": {
                                    "kty": "oct",
                                    "alg": "A256GCM",
                                    "use": "enc",
                                    "k": "BT4aCjf7rNgEbb4G_c5_4aqwOrVCKAaXuuS5XGDOD_4"
                                },
                                "7": {
                                    "kty": "oct",
                                    "alg": "A256GCM",
                                    "use": "enc",
                                    "k": "vOg4Pky1KZvi3aeaxKxxqD4k0pbSsIyLWG1Hyq5DWuE"
                                },
                                "8": {
                                    "kty": "oct",
                                    "alg": "A256GCM",
                                    "use": "enc",
                                    "k": "dXyV54kODPvIEdUAANOmOWLM9phpP1rg4a9JbYZQoc4"
                                }
                            },
                            "trace_key": null,
                            "attestation_id": null,
                            "claim_type_hints": {
                                "0": "Person.address/PostalAddress.addressLocality",
                                "1": "Person.birthDate",
                                "2": "Person.givenName",
                                "3": "Person.address/PostalAddress.postalCode",
                                "4": "Person.address/PostalAddress.telephone",
                                "5": "Person.familyName",
                                "6": "Person.address/PostalAddress.addressCountry",
                                "7": "Person.address/PostalAddress.addressRegion",
                                "8": "Person.address/PostalAddress.streetAddress"
                            }
                        }
                    }
                },
                {
                    "step": 1,
                    "description": "Attest a self claim set object.",
                    "input": [
                        "data/jwks/harry_sig_pub",
                        "data/jwks/dumbledore_sig_full",
                        "data/attester_data",
                        "data/attestation_data",
                        "output/0/claim_set_keys"
                    ],
                    "output": {
                        "claim_set_keys": {
                            "claim_set": "eyJhbGciOiJkaXIiLCJlbmMiOiJBMjU2R0NNIn0..JeDJoQ7mvrHjuKeB.z9f5qpUbCBLVqQwo7DWUFXLLcMyFWWTa60JkFsCU5bsOK5vVZNIlMLS30vTtOufITyZxpOQECalC2-B5Wv6K85C3YrI9n8TX1z2DBKMd2nnhQOCx76Yig27BbG51I0Bkr46AIZmuEGDPmL_d03xBR7a9mWDBNtejXkY9QbZ7yd9yD_G6xU1mLdwnc0hotBRnJ8Z9yJo7DaKCrsl0CrzQHKtMPR44qlzNoCLcYxaGPJ5GqGwpIaKgieu_9mwSlWJv3CYXmoIukffap0QgQr3XpVp86kEZ869HahhQQto8vyMEKA5hNoJGbwsQRGH4gFZnLnpiPY9vmD1PtE8P0cdqD7XGs8GLBkJ0UAb72mnh27SBwVJCPaBEnTzBluJQ4GKjtp04TU44PKoUkbtnpZRaaaNz2qhCJQhgJgLXvsZJCrMdOZ44H8WqFMA3vGLEbd0htyKvhdfm4nC6zAJ3rSrp-qw1pLwzXLtPB57mtWPKhqDjUVKtOp1oYAJoTiSsvHbVcDxML4JVWua85I2vTnTFElceueVPLfVpehtT93wmW2giuymZndTGH2SrS29XGUvQ-k4AqYb1aXXSisCsnSN62mSHDt46h7g34Ja-iD-Tg2JeGqQY_u6yl-v-xEuk5nMvz6jvDvzMD5IbBi1bbrIWxltcjKCU9fIo_gLIUpqlrawM2CvHTAGNoUjRW70V-75ToF0N4SmzPPEouRO_cEUeOjRA3EIJeBNs5P7yZ1o03MLjKuI9s8sNHUcdx90eQRTF0kxEh-6IRy8A3wyHdsxKI2w9WMJ277Ff8WILp9uCt_Rt2lkKPc5UdkAaQuPoAaCWu4ZqyJFX4F3Pm931Y9igWKwK6mBT9Ec-oO4zPh8qYfN-JzchMnwZIuClqqVrfnAq_yZefsScKknLZPNQ_l2t1_XRUq4vbQH8EBoo6gNXj1liB-Q18BMYgo8fBAAeH1pB6umNVK3mqIr2XQRIQGz49S_NJjC1kFnu15p38WkPfzQAhcM20EtdWWGorj8Rjx9ZSpYScTuTwcsHT97QyzIyQTP-x-MYFyYpqZWJprrj5ED_OHnaZcjWgNWAPiWcasfxcCOIqoDIbeE4LxJDm7qpTwtkst_zj7MNrP8Qo2wXELhwps5KR4UekHrM1RdU26A5HJ0Y_pVZfJZTqOCJrKDhN57FqcZ1exPkx3H9PanZfeJe9bCyxfQ5FWfvhaWBV0R8Q2cINdM5yj-vOWGHfC007Dw96cz8FXe8CQHE7YPTxsBVB4ZWMFzgThZfORQY5TTKQMvpmL_5J1hfYPyxOvR1Y1J02rXMRPWdSExZPBuNsfcRnKq13oZN6IAnzgTC8ONqx-NkvDzfD7qJKXRu3HuMI0ckQV8wRd7i1K7Cd-Z_yCWvsX_RrO3hA7eR5li9iT9U-fwBOdvixErZ5CDKdDlGC3j5T3kP31FFv0QmGfgyqUrwr1RwUhmLAcUYchEcaGYA2vudT0FkK5azjRH_Ax90laLj2m9zUETdMoHC7zP3Zk37a9oGSt7C2nBJkMtxSrC15q5tN_7O2WBZr91jxnRgQSnB-ln0w6iKGUK9zpHn5O_UZ2kPzde6v8p5saMWF7id1bwyx9EBPcSMuGvPKD23ZLA3N4tbwpvCa_g9iaP-ndN88PiFoLHyzLOdbuSR3wIb7_IwWCLWEQebXO3bA-qMlAM9q5y5H8fGFTqyIkBGVB9ebn47FDyGLYWMUqGfujAXJTzSXW295tc5W0I4D1AsgneOdXJDk_k5trEc4prAWzffFK4kPEhfZqHFx12DacDH3cvOnaVSlcd4u3qNK8sxSflLTTnM2qwyWe_oJNiIxUXy7Q1-OGpeWSbCIPIVumAGfH1V-88C1dTW4NraGmOaRXONXL2gzWXHBJhZuzyd2ubfsbpgzf-iPJZ_Dm3LyZVezeupBbQxlrVKPByvBWmRw0A7j5YKFrPqsTQdgYuubnpxTEIrSebWAkIqbyyiuYzDIanXxlyS4Gb6ko8Z4dXKQadg-rrnw3aoMqjclP4g_6PTu5E9yi4GfK0wRjSFXpFB-40EDBZJ0n4YZMHIwpXf-AoksSfFKEwNzDa7WGsTQ5pv1K0Fbu6Iwbo5O8d1AgDKJqyIjgaZfshTxpKBL2_q065u78DfvsGnoWJrYgrOIOS0fV7Cyi6Vc5BgRlxsZYZDsr-rrDJg5CVMaf1R11jVaploW76G7-Xvzo1OhtDcaOr3aImaDI20SfKBslnbfo8APdE9RxxyK7QYErK70jn0cbFuuIp-tLAaCgcj50qcX5ojuJWxE7W7kIi5ici3XwtH455xGT81Lh4lV_xtOisIySuBxvlAy1dtmC74epAbi7ql3pxBADsWAvJVaFBi_CEBHbi6vXtjTxsMBjBpmSau7L_Rnm0cSvrtFl0RhJiwu4r2OiG4eUGl4j68Jw4N7eoZC-OZ_ZSBBrS6xtgBqX4n_j_NiAAgcGx3HX6ZfBpycb0diP5cVYcwSZiXtjGyBkaNjx9JeEE_ydLoC_Dax7RZ65WwmmdDrvY32mdmcnfOuotXQa7FclvACy6vDbsjqlnk3sXyvlF9AqUORb4n4hXGJV22AfX-aTRbx6PxnGb8OpcPLGg85ciI40Ogacvg1WE61ZLDKCr_zMriSsChRFUNtn2YaAzWUG6gG9fa2Qq8Bv2QzjHJztl_VW2uDKU-vyzfDxVRMTAGoUnRVWbjWi1YPeP8MDAIijLmKKuond0gPwjyd_c3N0uzNsVpJTgZ.W5z1aUjKUESOZJM3zPI9VQ",
                            "object_key": {
                                "kty": "oct",
                                "alg": "A256GCM",
                                "use": "enc",
                                "k": "A-qDs9afcHjG1YihBZ5RGJqCXQ3s5eO_3DA6ienHpTk"
                            },
                            "claim_keys": {
                                "0": {
                                    "kty": "oct",
                                    "alg": "A256GCM",
                                    "use": "enc",
                                    "k": "KsFXNBi1aNfSHFzsOuH2eeOnxmZnrk2s0Xn3MseWpmo"
                                },
                                "1": {
                                    "kty": "oct",
                                    "alg": "A256GCM",
                                    "use": "enc",
                                    "k": "gsfTRk6aaUsn6fRJR_TBGr-pvJVQnEczzPVVKFvvsdc"
                                },
                                "2": {
                                    "kty": "oct",
                                    "alg": "A256GCM",
                                    "use": "enc",
                                    "k": "abTHCKmTuJ-LY2OZzPt5ggPBpKyhXTT8hKW8j-EAsoc"
                                },
                                "3": {
                                    "kty": "oct",
                                    "alg": "A256GCM",
                                    "use": "enc",
                                    "k": "EX1OOyDRB64knYqcJLgn7_cuJleaxRlAKsyhl3mUhdE"
                                },
                                "4": {
                                    "kty": "oct",
                                    "alg": "A256GCM",
                                    "use": "enc",
                                    "k": "caKomNHLSQGbBwhWFc9WnFkvTK1J8ympaAuoLXkKo5U"
                                },
                                "5": {
                                    "kty": "oct",
                                    "alg": "A256GCM",
                                    "use": "enc",
                                    "k": "BcNmhkcF-DUlWjgmPGKQLGDo45cA5Bk9idPN_J0Ycjk"
                                },
                                "6": {
                                    "kty": "oct",
                                    "alg": "A256GCM",
                                    "use": "enc",
                                    "k": "BT4aCjf7rNgEbb4G_c5_4aqwOrVCKAaXuuS5XGDOD_4"
                                },
                                "7": {
                                    "kty": "oct",
                                    "alg": "A256GCM",
                                    "use": "enc",
                                    "k": "vOg4Pky1KZvi3aeaxKxxqD4k0pbSsIyLWG1Hyq5DWuE"
                                },
                                "8": {
                                    "kty": "oct",
                                    "alg": "A256GCM",
                                    "use": "enc",
                                    "k": "dXyV54kODPvIEdUAANOmOWLM9phpP1rg4a9JbYZQoc4"
                                }
                            },
                            "trace_key": {
                                "kty": "oct",
                                "alg": "A256GCM",
                                "use": "enc",
                                "k": "ft1yEDEHAD1sSqOSNNMl2R3S-C8Dd5zlevGWFSg1ICQ"
                            },
                            "attestation_id": "kauriid:attestations/e03899cf-76a3-4e21-bbfb-f3e74cd5a7c6",
                            "claim_type_hints": {
                                "0": "Person.address/PostalAddress.addressLocality",
                                "1": "Person.birthDate",
                                "2": "Person.givenName",
                                "3": "Person.address/PostalAddress.postalCode",
                                "4": "Person.address/PostalAddress.telephone",
                                "5": "Person.familyName",
                                "6": "Person.address/PostalAddress.addressCountry",
                                "7": "Person.address/PostalAddress.addressRegion",
                                "8": "Person.address/PostalAddress.streetAddress"
                            }
                        },
                        "attestation": "eyJhbGciOiJkaXIiLCJlbmMiOiJBMjU2R0NNIn0..oeUYgTJXKzyXofZ5.Q_xFvghKfNED3D9Se7GMRtKop_imxkz6Nd9jBE-35QyWlt9KFSLt2MQsXvLwGvKVGOXbgYdEgSzDyQOwO5Fnf1UFo6zT-K5QEqOwzaJuV8FDK6_5xHrsr8LM-QMMSLCjSBs2Vxk9MxMlvpv54eei4osjdyEJutBOb-eISIXb1H9lXSfkLb-ye2F3ZTTFDUl4m34U-FLkcg4Cpslg_d-SH57pHXTORgLxpZKrPeKHozA2yd1ZkK3ZLYNBZ_H56pSG4BWdJXOPjxdKMbQQHqanrWTK7ue0iFWQcIXlXoM1kfm1YOhuFTzwCeh0VIOlHBs8sZ7X0dNUDkhJfSXSvBIlUuP7PEJHQDmumGLUi7cfBvtqaopxL0-jK7Zsdkm3YZ3iA_S77NrNyu3W9G46ULaxEpb7vezzesLrhGQJgY23iyQrM2V0Lqok1UKsb_X87CDLu8ktjSscVU5OQLSeHcLKUBZscsEY7Awp7WintDWlCr6_czINMwXGBw7Mi9474Qa2JsbAtEnSFLdtmPyqRgNtqAOWAkBXNp_kiDkT92aNhlkoQ3f1tI7a1hAE5Gm_MGGq8mxw4QiCo9uOgDJ0YzjN8rUc1yc-LNCa0IFKE9H-W9TLlrUoKNOWgA0AXO8NYs3AdBanyTG8ZydnbyWio1HirYEcs8Y3H8szQuoLNgQHs4Yt8mD9vfUkpBNzF6vaqfKfMexJoxioGVoE14SsDMdlPc7odzdV_eZaQKlX6QE2BX3shVLhG19BFNmbTh5cjVlLSwA_5isYaSE2nKW_dEcUaYAJtdqctUrBKWQb_IW4UZ-F-jORRE3I2BzNTc8Zn_ENh_by8ZA4RQt1aUAI2KMjySU0DE4dYBeKk9gw2JkjzbrVXsw-ecCNPPj-RuGa88xkXk9fK_-e2J_U3065PTJqCnmemdIiN89vn1LXrpLJ7ms-L1gIcG-i4ek5tf2UN9c98L3_vLkex5OnM4lb8-T6gGU4BAAwVDaNw-t3_3bxDUDM1Jmes0YJuG1KuEjGtW8zIPslaoGu9W0YJ6Mx_bPY6TRBV8hxq0GgAOvgiwoxPhTuNl_g-om2m3P-iI7S_ehWz7wwJqzMBmyuHOeApQ4tTbub0Mr7A7pwnrySFZeHRBQoH2lj8sCc4j2lqinYMiX9l9iXw-dUsLpVT-nF-fFOZjZlomqUSn1ymVlLMd06FgBvDOZZ63_CsvtXGur4EnXU4nUCyS6QbCw5i_lmedOP2-but0INAA0ZWHwM1iL2FVsew0JDxRAn30tQ-41Pj2GD8iOSJiijkiVNjxtiSiw1tHrz6znB-JNbPCcwrGRNvq4Q1f5M2Asy0jKYlEcGNKSqqeAbTTg6CNyEaSbKbIpXCH2uMt_gfmFQ55rUamUhX1jazd_JCpguzUsleyPVq2Ekjo58TyuSeH46zPCbB7DEBDfcJj34e8lDBqP9MRSyXj3_T-yxl-n_rJm60lih-j2p_UT5QgMvDLlyNJmkknIsswUIRrTCsZFJEHxuryZjX5lBDu-gUersxqsYOCbuQ3-82EzHQiw9dy5FmOrdVCVhRUmP20VIFAzpuYmxLEVkik-rpaRVhWicToN6XBdr71tG_-PfT8aDmBYFpKpATsMFjdKt_7bjJzSEA0UCRGHFP4alEZlgWz0pde7z8yRqxfKLhp48_O5USa_h2Lh7i1ZV1qQ1FcWFya1ZPvTxznA4hai24WqrZf4G2WIGOMzWKSyNr8Q8lGg7wuVvvd-3E8QUqVZRmpoApeTOhfSfWWHW76IlGu80rmvIa1iB_YU-SGNIB5aS80CRNxsXqpYLb-QGNW0ACXj6Bndtd_DFe2ISXlP6M_b3c3Kt5CY6UTAVfmKcZskZNpsQ6Fg9fZdaBKzhCCcmNpz2yz1xN_WkEZzBUlwzq_QD1iaxrK4KAQMjP4TkSXIhevsX9B6ElsBV8G3XuTJz32V8dhXmQqe4XWLwbGJoNX5ijPjBg6Drsio3OZ0W6CRgyBeVKhbQeU-kFOlzWvQ-p-d7kFt6vCvr04rnE29sKE1TyWbEWIkWJ1VymGBXN6vv7cUD4SihzLALDTo59HbMcNAHuMHfHM6H7SAuIBcFUwOaPaJYwmkWJhX6QXksiibd6WbzKRnmsX7YfYuLMEYLTh49LeLzF_YCAKjmSRz6LiMR37fteIYXHM61xdVc0E6l0vLRRJplobEAFHD9hqFhQ07VKABQubQ1nblZfw7ACzvCKZPOAv95Z-yyqroDO8Xma7VZw0bxYULnfnXe0ouqsXh2y2TXtzH2OTxRHPK-v8hpe-eBhJiwtsbDYe4EtVlPgr-HidtxkTJRqSfn80MWfwp5a3iWr4XokwnL5MH54BZ4rZpJ0Jq0r-6FV_Wk5jmQyhsPTdgty0DwQO5FaOo_4zpVXFj1XQrj0yj9junk9Zmt9rwkPj4DOnFDKN4DwcXR1npg4V7cBUqVdKiRSL-NSMnVtiWOyiBdGz9Ra2MKJhpAU9b4TZysAsyYmngXhTdcqWGY4hpRMpNGz45ukazSFg-Lz_cbkoif-Au7jXFqloM8e_ZtwI7_6y-04guBUuDy_8cNYzpbxCaXMvDHMi8LiwAjz_6QFtb8n8tBYRdhcyelGisDEXIsbMOblzCm1A5LV9U5XGMh_aVjKYRTmjCeosoopszQ8j5369HaBs2fZRtb39CjZhQHlME6YqYFz-sYKdqSKRjz8bNNlYJ_oQhwBnnk6gpri8GwwDLYjhijELbosBaXnoE-fTs3ciYA2XrJ-EanYupUooUIOuwZtDLSENy5IEL2gkpVxKYtr5zWM0DRPTNRGBi-mFOQvcX0NHvJ9TShQ8RrSFrXSiK7nWmwzqXjYXS_anOEECVIsMj6WRkjqdn7hoc8ym7pJwFlOctAive4qigGGVnV2YoBGBNeWoy_AerdqWWZrBgTV03lZUSGu1JGhJl0Pbyp34XxEIgzprbjz_b8sSlZEofKGUvY43G6Ewmyoo_MMys7IC3Hfa7vdQdIiILGNxcJi3BqIo407pHnwlFkOSpuIQxW2xCmqkDwkmEpIF_JJtFkMl5x0BQENUQkWN2wit5Nu_2Sjn-mufKHIQQWr8hcc9rBBNf91_HVtjERZjmp7962UWbxs3NfATT8eIGtdLe34t3zBKFqC3zqPMUT1SyD1Zjg0Zqhw_VyBsDoyes_Cdsm_9zCd1SNjEYxYkWSItEzrQ4uS8OR7dQXqZEM_3jHsEXrf8TrOGj1jAkGJaZSR0Dbad-gOe244Sy2288FZPurk1SJe9bn-92Zvf6HQj8aWA1hGK4NdSoFL5xaPzDWaSzdrgD8ZJpeKQUqh4248vRRIOvgEEILmoIXgvFDOV0O1yZDqcKJbv66ilIflqh19c9iEQLWW8pjdtjrEuqSIPvMSOMNeazlGPqXEOdJ0P7IICnFWP9cBvxA2Oki2WrsF5OgyA3flo9bbtnOE4qd3uLOx0-Tv5I2_xSDHrNnwGR-QlomalfxgrKIQuCuUWikTOUtgRrkt2enz7ud3H1x6DNjK_BgJU_MXYKYBMDVv2HNi-pt4dpMMh1V5DOpQl_Y0hfvEzEan0Q7UBUl-f_d3lBm_qa4-u6Gd6WXTrZSnrnbn7s7-jbfWIiHVHBE4ioJVeQ9kHbNpPCy3TGkhTqLSpWkh4ehGrJMvfqLPApoH7yY-mDAX9xhHf7uv3ZUZCvsfq09xFpeywJdG-j7ud8yQ5Hr2GTJQRbjI_DwqfDxwLgx_B5QMAmwFrYR_tAb2XOFGrM9HXkixAYt8gGtegdhdXUscr2FvFfeI98cNpI-l42KNGjTyD5Z44DqbrxarHohMOH77Jw940yQLzwi9NivpZqS8TLfkqkxRJZ0D0B7xUDI2oue-6xqdeMyYyuzSYTTnH-czoG3jEypV7hkLKP2WEsxJU1UYFwbOQQR0Z542zKN2YrMqwWXSImcHrpgGdvz-VisyJjXz674EviRQTLHs9li7qRlo8-10B2GavIFsw2zXdPP-49R4woDqrNL-MptqXC5sXeTNWZy_d6rEqdaLAzV4RvTX1z3PSC_cdKRvJ6iyy4GAYzp9wuC7K5YzuLVFtvsJ9JC_-WJSOqn_KLpHsjMmdCIyftkRUXHozPpHjXIui_aWq_ngB1DaGizw80YTEKqiyN604kB931gVXA5BqgrCyAGEckMvu1OOdDdSoiymtv-M0a6-4-llyjbmgVsyYbAO1G4HYBqygN3_q3lv5733gc-cqx4ReaY87qiJ4cUcKLAZVb1PO7HZqyM3GQOwS_4s-yknEH-wOaaeeZ6eR6LeQUkyMZsRf83MS686ptGnd8GdgRH1NVK4i71ra3WSbMN31klNhnOhKPUEl6uLZRVYSMoFS85BUuSU9R0sW9I_iGejwZQ5F3mFPJ-069w8vMv18meJ9Tyac9-Jv8mFhVCP_XbnKwklPW_-e8ntGr8RmKodbkOrAJx-EWXrUXkdLHbqmCS4g0cN2g_zUG22AVDUq3P77LNm1YO_xiTAXl7LAmkuEsiSxDQUQLz1E-cKEbBIpQYHWoIvUTodVQfrM5slnF5oYDfARULpxb0en-bIn5-Ts3fEux1y3Q3CkVXVp3jywUIHmtrFWNmIdLbNjUYg29Btuf31klfOsgyFwMxbdm5BcnYjcpDlusLr6Jg-sWDBT5_rwS0yQk73zH5l_qjTKP6ENUfbY2jfSvnxnu0XSnZlWUuRzbaKNNMmHh0QgFH9B58cGYrBQEp5OHtBtWZJ1Kqjig1Fm4GxXD7X-HhEeU4737Uuo9AeQah8oAPYKXoULgM23IyfVzDyvDEUD_5ClG2N5sYCOQ5qA_ACo7x97rOO92waMCwYv5KtNt6KiIfniRelH7obu-KgjXu8QczZotdX8Km1-LTJ7JnY5DmHcdnDdc3CNkPsXiq5dlkWSCh7j4WIZF0_k6KJS2xz82AXDY_AWTCr71tVCGAQdlv2KJAHdso4KFHloRNDHM4GLyrgmADVJbLcfsQHbtnxZ1jFOjJj5qqGsZjuYTHjNZ10hGixFFcBKuIvmm6GqLk4bCYXrz2AhQkLzWCF5PqXz2Gs5XI85U-gBd75zt2MGSiKAZfHqyidvBmcXioehYtzZ_qap0-i9rAxR_-BqnItHKa2bugKJdos_hK9ab6MX-eV0Eeklc8MfEhbrPPK-drkNpxliHaGy0tskxoQjESBDvT-_ZJVPByKVEw9MV0Nd4u9aaejcxdxIFGj0bmRjWs7sM6eUBy-hGnxcczjBpgAv43dA9MjRM1M30RhIIV8EK9DM19XKbooXGwbF2HSdbwEkEUUEBq_foCFg0zM2jz6lMsmznREMMQrJlXNvno5zoBgT05UgbAgfRnih6RHD9AhpWl2YapMRSjrtHfu4MIRanggtispNYOJZdkV0EVjyGVsKyotYsCOp4eitu5UuN6qd8KFMtEXf-jMqmywH3c8JX32nsyiqsKckiQTtb0EmqCWtKBLw6ssvVvVktsLW0M4K8fUdJvaWunZsGdk3DRqStjgjf7pmHVVT9qrLSSsXpA52c5del0-sUAmKWTk9yj2YRBV2aNBsXuatuDvHe8paet33W2r0qNPm_xxR8Matfl7Q9G-n-Id4h-bqwYITIKcYA7UukfXUjr4IaZXwz_MI61q-a-jYCkqBeMEcXw0PgYuPDsDRB58kdBW4qn1_sbtuwSN93ROL2K3A6eIxsjomUknr5DUOFWvOmZM44yXrXcncReF1-KJxvS5UzqGA805ysBpwBSBRCv7JOGfTfla3a-jVM2fmtddQ2I5J_l4Qh9Y3d2oeOABMz3Kxpv7pkpWwFebuocU25SIW-suloBwApTVWx42r6ldQKeUhsp7Hk1i3g3eJOoVIij5mONiWGZeevdUyj1NqMNKSdI_Z4jq9KVdClOESGsyRP-kR06kpvGCylRg7wOh26bXDeIZqc01_QPSX7cJKi-aKRyE_1m7EVCrMJpkNLBE9LYOteexl20IuZhDQ8dxL5zemJGUESKO96ysa3VTBMdLxOh6-o4LNiyMrbnsVXNHs_4nZXlNPirPLVnRrsr7DFkGZkAIHZ4JTU1QFCpHH2tsz8tZAVXlkaWu0QqJin_WhdJRWOTV-XODhzDxI97d9W-9Y9DAz-CF6HZKmsuCAvBQkvO3Avj46c3j0uxoIvbXFtSbvLC1P-bhAsDAMiaWeQGAq2qKi75P3qFHWUsKPV-7Prw-WEydwzF7Xv9SwG5vAirNUQWJfDcWEZluD4DUHeeOXHz01dEik12oJT-y5-oE3O0UtUWF7fRvaDghUSonX1NCDcg9Jr2sOHnv1iHtvzWjGzovKghZ-rq8SDEY4gdKSPZp49PjtK1XM_4KxhiqxbXBwb6n5msl1qwmUiVgoUjxsDXOjX74E-2bdiSeQwtlYUNsqtM5oOjbgKklCOt0aEBtGbLipjdrCcMeDNn8vuvuNzQRXOxz8rG8sf30ztIdz98qlVssp7OApUs5Hjvdlfp31ALaH--8-wOLmHtpwkkJPTBYTZ9XmlxQUp5DV9OpKCWDNsM4npYBuqx18zOERTIcyDDti_ImfoQzelyuS4Ev4BH0wjpKIbM4SKPtTkBCECaRzLqtKaH_7esdszT6Olv-giUgV90rG_AYPNWUGtKjLOAnnYgIL87SEUD4kSzPl9xTfwIWrXV-5xI-YHMhyPvuyPQAt15vEsRwo2Z2U7g21ht7FXBrevraPQPf8f6S-LehKz4L3ZRYNEib53LHYRqb1o20zOg5zZpkSX5NFtyLaYJvkLrdggO_um3w5TgG1KrKUu6_H7JeElh08YmV2Iq9hI9BM1c_a-htlsnPd0bvcMideGuVBxKNviLGucR87he_g7UsZJ1zmBgW5tnszE0K8EIc4cvbzsU_xFqahCxyIVthcmtvj5zTtVJZcaEptSrDhM1z7ylwAKBd2YLsRjKXC0y97NJgwsW5H9Qlp0m7sNRP9sJZpkoMu6BbNw87XjjtTB1u-anvJoTxm8n0XAjQYxbZpbjO517EXfRlxZwmIN9tXl7w2Hneye1lQn6JC45sdx64PeeSQjcj0Jzk9SxWQf7A_zKF5XBAmUpLpD45RNZ9i_09j_PNxyGhiOSASO_uP3B1KBbzrTqN7fB2iurmO2Ct1jSq9cW_Vo14uIxEP7c5Nf25skoSviBKZspBde3lQ5_aJKtESWdl7jEeCYHQVKFuYPbeSyjfFEjfjErchDrzldotdLJCepk1Ph7Kuf804N3N9jIYMsVwm1LJvcWGOjB5av7FjY-giP1K25SFUXqaGQnf-Vgtv8INcELLit23wp4KR8bC9fCJAF6_KSg2kkpOcgzQ2RzzzzyqSFnl-p5bjQFDiy7f-qzm6Rlr8sZwVgCMYVmoNeJBT8Sk78OxvfUQpT8_iArDTfez7x5Q5uaTrkcU6uwhNHGDhv98lrrbA5FrbszFB3Mx2cerSbZASnbY9Lz9MYsyifU6tF21uM1cvxrANMnFtmsAQh9sWe4WvOb171O597MtL6kiZOl3fAJx4aXT9yrG7x1umym7-dBIwAjiaX354lEpbU0UCqtEuMOz1-Ht-jtbDWQ3f9F52CewQJwBdf8M4DHz2W6uBt0jUWjD5djHuBRlRiA6yKB9sshb4KkG1hjGos9zJa0TwNgj5vbOxKA9jWGtmP-JRkwf52r1da7wkcST8Ijyu0iYRMFkhRzfuXTyIJcfoTvt3pjk2wJeJbkcMzOqyfVavmeyrYfn3WQPxWPU6GFhl1gDHojhwgHxayBNNVshQb6n7_Hvg7ta7JUw93Rhm83M6RkxZKB6JcKS0G3VJXECdbd7-G8rVo8ztFKY-Wz151Spo36P_ZzY0NjqhO17O6nsZxEc_FO0Oi12vK9quqJzQ7gjFdIiEuF3s4UF7Hf7KP3QXwS_887dp2YH8MZ3qdzl5lpoczp4kgIzrDBpGhYjPM2arIw6kphRL5Tbri4aUai8DAaf2NnBFgD5enF4xGhw4pL1FvPcA7eAr3_Ig0ob_bV-FTF-PSBwb6sgAnUbpoYMFKv2u-fIMX_qtXP3IGQdi1TRiAIL6cPSVGe-cj_8zs4ZYdVnxHMSdLf8V4YZbUgmfqbOS8RPLWmB8hkDOLuuyJkYRnNhv4q3h-EKPxE5Wse5-wqmG0a8-IWE0_Ohjd45P5xSzYa2cUVUTPechu379W2vL1Tk0vC9JtwVhHfXTd7m2ejCUS9QXiBVnpyMlF1FIM11sRUeGs_-5dH0ij-W95xJOZnbeAcDJX_ru50Rts4eB4a9Qy3un-Gym2KSoFP6f_53lPM__ORrNAT0nTeHgJOp5LhEnD0btvG4MfoSGC7Da3Sv1lKnf1z2XndbdHcYeY9ps96Sgru1emrw1T7BSutsRHyjY4kLthPECl19uAG3mfyepwrXA7fZl7xpCfokn8F781I97t3iiPer4SoQ7wOEbZvqu_0bXOwRe3ECUHnrxlxvgVCOOf84Z_e7w_s_ebj6bm7rmzCYsvo9EXx73s7daV-2xYSLDxwYAih9xVrRE2AGRSJvX78mcoXXsjZB6qyeagA3dGClJQ3OkEgvfibVfnCutn1X1zZXEd8xkX-BMhhb_-bfxbUfo8Qhc4XO_u47w7oBkYoQDHP1jOeg5NJu3V5lVeXLWkb3Uyjx832at_-e8CErgyD73BHHjTmRq4zPWA0bvE1eCqhU_epIYQseiWcJLSDXM5XZ8cPQacY8fZHcY_h6pfPLkYHadUwYSqBK1zQJaS8Xmces_njWkmNIPZYHW5iaoEMcXFEj6XvcrMEObpNQOiEH3p10lkT7Q1eQ0Fiu4hRADTJQ3tLsvDQeShIbG7bn_lisgoOu0g84kjO29GKGuQJCRBhN3WRAJbghi6rZsxK_nejfdIkQ4KKPNO2kNOjXmrEqTjBoJohG5lFxWNUeZURIoDJOcCNsMoXy7MbzH8tCp1KkRXOlApXjUGW8J1GcyVfrSoRtMr4SJQQhjxbsCXb-ur9sUQ1-QE9pCq1CNZ6atNCpTVqj4rzwS1FDHkAGyNu2wLp1SV96hX71WKNBuq-CHe3bSNcSdT-R-bNrrI4CZ3L-b0S-e9n3Tc-02etNURvBRNzsdY3P929WZQK8mEbmpbNkTMhQXTpKLJWFMow7S94qyJWt4JLjvd9gsZOhspi0V8Xdplw8E5J-DB8AYweAZrNiBoqB6lFRT0YyZ28P88hQwNZ2RgURM30u3IQugC6WgX91i1fdj1FUFHKHHYY2mb85t_JxeKi_7rHB7ENxOVCBJOkjTsrMZr_jkxWWVO60Opf6R0QvJG7V5amuXlWAqFUp3l5uUGwK6TDvL4Mf8X_FopJczD6Itwgsf7DXg6LOgwehUNEAn6QIGWm4jBhsHELUZIVp0yCGwBmzXUKOwprvZbVij6DFmoiljgd7WS-uP8mGHC0RjhZ-M7wyE2tKQOh-ArpIo23zrim6mBwCrUbkC_cY-8HXseFHX5w_eoFDhufnC7Epp9wbMvvUk7jd7g6cCHh8ntCkJsPNNWHlejwZ9fbxddeoGhmnSIrrb_-NSAWQ9nZdKkVLtEtXh4zfAVt92Ipu7eoOpIVxdxzS61WpyYSxGElM4PAwiqTz53ZTDIsIqnpQ0BaY8t2oF13bz_VhaKBXd5VRHdxDKxYAH4EzSa67a2_Ja9GZLwLt6YjTOS9_V7bJAldwbvcTzU9ofpReAfAsQSR6vVMF6Ivjax-a4K0aqothWpCwBITZQi5LWbpGwCP-YjIJMOMXyek4hlqkHpIek1ulNzPsPnPEfssLA0aijtgZhd19Eosr7KlpngXcPyeWmIYcGWdXYAeEXqWPtMA-1B0Y-iRAeRXNkqsm2SLnMwPiwDlT-1Oye8JDrpLTHnAafXkML1TvGpOK2YX5xNioTiGto4fsPu6_c3rdDzt0VN0HDn5Ngxdz7_LxjRGGZ8Mb6x4NvvtWxGeECwUw6YfG0qRUAZ2sk5Xk3rlxr4ze9hEvPvhRtW7B1v-GYg5nREK1B9dcTG5jqUJC-eX8wqm36kiQCkBCGxyg5wy3igLd6kp8R-0zEcErmpWTu5nRmoPIEbz18pG_S7YP0W4ft3cHU2_2sSCvMoSkmWXKBqfT6gN1BCVe9EJbAye0ketr7OoOXBhnUaE2oE5NKRRc3sdy1lVo3qiBR0oaRYkjlassraRcv6HU1EUttwDEwjU46N5z3nwzunmlxA5IG5M3oUgU2QuCSm2vuPk4p9DG9fttAm3skN3EwOt_8Nbypr4uALvtyQJHAwwYhRdYDYXk5rbKr-33Xqv3jZjZ1BMHrrYcoEX4XXkz2tydAcF2WX8AqfOXRNujpYp_QQJMKligjl8w1adE84qPqYP9MVgl2XIE1tMip2XQtktlYBWEYysRUcM_Fx6UEDOgLTNDidabw-lYn-WXKVbKRrjK283jHm5QI9lPJzXbZ0-Xd-DmHH0Z0giz9DP62WtNOwW710yYsvMHGo2YKrdQiOFei9c-HHvFy7DPtwTbXQzQzdCgtqRR0_wlXSjw7Yu4sG0eGXogS9lWe-sQHLSjPkmjPy0syk9hjyEHes3PBEtFTlxmuEsVJZ4I2MUgwjYBpHBoeto7EuFa8xDj-naFoEwzhzYbDWS87iCXQCAQ8qR9xIaTZNRROjokTekRNZPFP5kJhfJaZ2_LHTnp-oLZUIURdB9aL495uZl_Bp0TwebHI5GU-qWzS-oqL0KPiHbcC5Xx-d7X_8u-5db7UNiVGcFSMHGk2qKMOCVTFzcpq-S2c_JS48yZw9ulIqahHe48DcfcqwufdKY6LUiAy3TR7ygvmoQBlQUcBT_FY6FATPq4-l68DSjkIAYVm3glvMAjb3xUIimAznCW8fLKBpLNjvidRx1soSaESwR1ac3rEyL9aJltfPnuVcZpTCPPfPVCwXPxnjwErO3rNZ4iL3F85AvrpMA-5J_KWmwseQCUXnDXONEfeUntKARJqkfsdA4nDAj1256XxyYFcbmHcFD_syeubPolUHbzMISq_ovamJvVYvXenLZeiqxi4-0e5HKhLX0eJiAd4kDabNWm1NN_UYI3skwq-1h9nKq0CMAb886VECKL90Tqc4tt6zkL9DPnGAXi4u1RdBrB73YhUIbEsoaWJrNeq3xhDR9WVXOrnmqr9O64Fc2ne14qsljPvFxihRh7N0v_T4ZUQPToV9YZgjJZ2N-7iTL87OH54qGZBciMBdXEX4PGOoyG2pTw4yAwqWi4XRlHy_A8zBSOsz6aMM6piikLC6Q66Td-FTTPBNXdSBo3V7Uu35nOVzoCRlhDdWQ9tLoWmegJ6JZMnn2D6vSXgMk3AhFS9-6aGWDouazUU1NCycsw0QgF8oy3R4EPzjQm0eolVQv9N6KGy9t0jdLGKPd4h8rDpIIPc7LIITwQFfhVKnBpjxGaE9Vvlac2FXZtxTqgNw1CvjZPX3w4I__iTqtFyLI2XdOYttltZT8HDWAG9UJCmhpURo9NhaZlZaad1uN7MTkdjM-ZPWJClNtl2rzgRC8V7wqW8yixHfWdBBJCU4KYrh2r_bF8QoUEbPGBuC6PvNeVnaZrpbJN3yCt8jSDNy3d9l9UMqrCH_SL1IMRE34d9oLumjrL1NODpuCcJHnsUN_OJU4qV3uptY3lNhYBguTJFlZhYPKnJX-vz0yp0irx7iYeXqE9IAzTk9rXRW4uUxEC1Ncq1yVwwccqx1b96aVXXhheBGt-TxLHZc2YmZTNhtdxnrT3GUFGApdnN9GwpXBXKMNgvrRqgsQlXQjCmS9iYLKSII_r0zloYspJbFXKSdykdxatYMzOz_l1TFW3K_4K3JO3VEkHyWT7COXv3-odckwUojJjs7ONE45lyUXoDVHaRmdQs9N7F-YLpeTLf5Bkl0oR41WuyM_V2BmmqU-KKJXk5YpxiQki42GvblH5iBIqiCmVnOp6NOH8sJIYKyi2qJE86wB-C7OPFz2V2J8yenmFHcIbqP2w_AHMKpnDQyQpD507_dMKEGMnC_pHOMRTLSgrStHNaGZNcZkZjjb98twRrLb79sslZd5rl0ykyYZcrscbfyGcZCacB23cyeB0z-3b6AiF-ikXVRlkNr3U6dWadcp_uhKdF3Kc1DZRSENfmb-oXFlz3I--DWbQJSBV9TOtSX14zCGcbu__LKjS9lpDMwlVt2gW7Bxn5N0AnfejH3aRnvWzrjinr9xysVexumsu-79kxqqxsDKx7K80egjEt-HHsmFjceyIGg16H3VQXwcX1Srx_dhmCNELlvRXXHH4BKREVXRY9VuCzzhuj-bfUUvk8CLFYQIXlfvvVuRsNGP2OzyaTE7995t0QjzADamFynaoJWacD63Pla-EwP41dI-vrMHxlRh7fHH3mcM06spVFQ3GkDdbyuTikOCepQu4Otcq3_yYqgsNUU6D1AIUdMFBA-jl0G2zZAQTGBEYLZKrOGcw_STNQ0dcIf_gQYTSIxMf4ILgsIgWPIB39kW_cfhfx25yE4UlmvomHna7-l5FUE_grWfCUmhVgQyJPg2jAvdc-QN2src_nu9ZYVhnrTtomRNghWJxQhE4-FlbEm1AgJUsXuVpk99R0VTl9QsgOQ2IE9OhrhkxsQR8pxtj1gaq_XND5ZbJmhA8-74DFzvi2hO6NXUqeQKjwQlcS5xGjewoNnl27vJPZZejDT38XwUlENK0djYyTMfPHTWTX3s-ykg_7eg-HjunqKZ6Nw-QBAenzTfiKt2PiwfSFdIKrQO5iMcDmJrCgpW7jm2V_U3J8-z8ANU7ZUeStSNHLvqd7BlGCD06c5XNd2YFZk9TexijKxODYpivL2CUKUiIlVMayH1ehF1_Hgq0wg5hTHvkWtJJn3hxJrsLgRVhixETLYNNIp9OhdSh_CtqspRch2oznLDiidZx2ECUPRu5Y4rIG4_ZSG5EYw2aBZsnBP10ck0doqGB4mH1sGxFDKjaFU70-Lct4KCiRvc6SjfOUZhIy_wJfOd9xPCucwvXQx41E47JYd2scOtvIsycLq2GUDfoVhxX9aCo6LveE3RyZxZP5J8-fMUmZCzAy4tEgeEyiwbPAOC3lFohiLdvpQMCFZXDtbuT1TQqPvHblnX3hwRlJ8xE_FWJ9z3V_-b0tKIrK54UA_ddzg_YUPejLps-JrhlBS5yoR3rl6GRhgM8cjKpcmESXWCf4BieYF1xM_6p4lqh8h2iDQ1WNrXCeGrpvE6H8w_QRy7uwnIiXqoa6bBc5wczVe_2res6gTS9c40r-y6mdCTbrj7RBImoGlKi0qTVotIrMpbwr73E3_rGR6whH5hm86cl2YGhZUHwj9VFklWRX3neQpZLepTWmm5z-sjDENlKnkDmRcArZLoEoYJYfTh6E2so1zxu_FT-mokMlpDzuH7gzN5Ch0SwR9ze6IPe677UX5lROHbN1lSgsry0-vlp2-3XtiMcUhwooBVov4-btwzudXECkRHzu5vtXhB9c9J_VY1ZA-PZFuPdCYzGMascJASFkpky0ew6ng7pNw2lzkDtAtaje3RGXGsauS9cEebN7JA1PMCx5gyhrKyu6JnM7cWRyxaOk_spIySvAHtkGRuwj3qfqj1fBm46efPPLRdsPZZPKf7H4Hf5F8_5R03r0Q_WuqS_W6BcPCHOuVzWkEqUksIUSnZcFtxpp8vlXtEAELCnsrvVlUNpPYZCCgcYs_xI5ZGHDgd5oTV4IMfi0WRwdPW7oi1Ac6LH4ap-zaXCB5gu6Ye5Efc-7rxfC_v1vUPe8H7RHADAo_HyJGOBKUoZDH7n-fXC3vK55LT9qN1CoR_-Lux5Jy8zeB14RS8eC4VoO6UYCrsp-63vtxQWhKN-uGgq_9iylVe171Ot3s0ZERZBsITuf_syn6osP6QdN0Ngc3vLnmrcIfyKw.GU3uO_jUqywKZ9JjZbSrFA"
                    }
                }
            ]
        },
        "1": {
            "description": "Attestation flow for a foreign claim set, encrypting with AES256-GCM.",
            "data": {
                "jwks": {
                    "harry_sig_full": {
                        "kty": "OKP",
                        "crv": "Ed25519",
                        "d": "nWGxne_9WmC6hEr0kuwsxERJxWl7MmkZcDusAxyuf2A",
                        "x": "11qYAYKxCrfVS_7TyWQHOg7hcvPapiMlrwIaaPcHURo",
                        "kid": "Harry James Potter (student)"
                    },
                    "harry_sig_pub": {
                        "kty": "OKP",
                        "crv": "Ed25519",
                        "x": "11qYAYKxCrfVS_7TyWQHOg7hcvPapiMlrwIaaPcHURo",
                        "kid": "Harry James Potter (student)"
                    },
                    "harry_enc_full": {
                        "kty": "OKP",
                        "crv": "X25519",
                        "d": "U7ZBkzSFDI7uUV0RfDmFaeHxUCnFaxaib9sypeLrJ-M",
                        "x": "U1GCoOv8N0lePEpZVL0eWEOxriqW_ikAnZdDq4nAn24",
                        "kid": "Harry James Potter (student)"
                    },
                    "harry_enc_pub": {
                        "kty": "OKP",
                        "crv": "X25519",
                        "x": "U1GCoOv8N0lePEpZVL0eWEOxriqW_ikAnZdDq4nAn24",
                        "kid": "Harry James Potter (student)"
                    },
                    "dumbledore_sig_full": {
                        "kty": "OKP",
                        "crv": "Ed25519",
                        "d": "Y-pua--r4vGiRcZieji_sdH5feNsRJgTXBEiOlEmfWc",
                        "x": "8TakswfV80LFiX_Ii1dJL9u4vqWlkhApKbo-v2i1uUc",
                        "kid": "Albus Percival Wulfric Brian Dumbledore (Headmaster)"
                    },
                    "dumbledore_sig_pub": {
                        "kty": "OKP",
                        "crv": "Ed25519",
                        "x": "8TakswfV80LFiX_Ii1dJL9u4vqWlkhApKbo-v2i1uUc",
                        "kid": "Albus Percival Wulfric Brian Dumbledore (Headmaster)"
                    },
                    "dumbledore_enc_full": {
                        "kty": "OKP",
                        "crv": "X25519",
                        "d": "vfoxXOfEJsZXwzgOVLEK7kmqgcaX0gXtYaEFD2tlwbA",
                        "x": "kVNmr6NqCs1mjtprt4sK01Is6J39jpprRz4Ky3Ig",
                        "kid": "Albus Percival Wulfric Brian Dumbledore (Headmaster)"
                    },
                    "dumbledore_enc_pub": {
                        "kty": "OKP",
                        "crv": "X25519",
                        "x": "kVNmr6NqCs1mjtprt4sK01Is6J39jpprRz4Ky3Ig",
                        "kid": "Albus Percival Wulfric Brian Dumbledore (Headmaster)"
                    }
                },
                "harry_claims": [
                    {
                        "@context": "http://schema.org",
                        "@type": "Person",
                        "familyName": "Potter"
                    },
                    {
                        "@context": "http://schema.org",
                        "@type": "Person",
                        "givenName": "Harry James"
                    },
                    {
                        "@context": "http://schema.org",
                        "@type": "Person",
                        "birthDate": "1980-07-31"
                    },
                    {
                        "@context": "http://schema.org",
                        "@type": "Person",
                        "address": {
                            "@type": "PostalAddress",
                            "streetAddress": "4 Privet Drive"
                        }
                    },
                    {
                        "@context": "http://schema.org",
                        "@type": "Person",
                        "address": {
                            "@type": "PostalAddress",
                            "addressLocality": "Little Whinging"
                        }
                    },
                    {
                        "@context": "http://schema.org",
                        "@type": "Person",
                        "address": {
                            "@type": "PostalAddress",
                            "postalCode": "BS13 9RN"
                        }
                    },
                    {
                        "@context": "http://schema.org",
                        "@type": "Person",
                        "address": {
                            "@type": "PostalAddress",
                            "addressRegion": "Surrey"
                        }
                    },
                    {
                        "@context": "http://schema.org",
                        "@type": "Person",
                        "address": {
                            "@type": "PostalAddress",
                            "addressCountry": "United Kingdom"
                        }
                    },
                    {
                        "@context": "http://schema.org",
                        "@type": "Person",
                        "address": {
                            "@type": "PostalAddress",
                            "telephone": "+44 555 325 1464"
                        }
                    }
                ],
                "harry_did": "did:ssid:2omXXXharryXXX...DeG",
                "attester_data": {
                    "provenance_namespaces": {
                        "hogwarts": "http://www.hogwarts.ac.uk/ns/prov#"
                    },
                    "attester": "did:ssid:2omXXXdumbledoreXXX...WEG",
                    "delegation_chain": [
                        "hogwarts:Organisation"
                    ]
                },
                "attestation_data": {
                    "provenance_namespaces": {
                        "nzta": "http://www.nzta.govt.nz/",
                        "watercare": "http://www.watercare.co.nz/"
                    },
                    "evidence_elements": {
                        "nzta:dl/DJ034005-v193": "original document",
                        "watercare:customers/4711/invoices/201809.pdf": "digital scan"
                    },
                    "evidence_verification": "kauriid:procedures/evidence_checks/ipns/QmdXXXcurrentmanualXXX...YgV",
                    "ancestors": [
                        {
                            "wrapper_uri": "kauriid:attestations/ipns/QmbXXXattestation01XXX...PTU",
                            "object_key": {
                                "kty": "oct",
                                "alg": "C20P",
                                "use": "enc",
                                "k": "AAAAAAAAAAAAAAAAAAAAAAAAAAAAAAAAAAAAAAAAACR"
                            },
                            "trace_key": {
                                "kty": "oct",
                                "alg": "C20P",
                                "use": "enc",
                                "k": "AAAAAAAAAAAAAAAAAAAAAAAAAAAAAAAAAAAAAAAAAAA"
                            },
                            "id": "kauriid:attestations/00000000-1111-2222-3333-444444444444"
                        }
                    ],
                    "statements": [
                        {
                            "ttl": 7776000,
                            "metadata": {
                                "kyc_compliance": "type 3",
                                "governance": "NZ, non-banking"
                            }
                        },
                        {
                            "exp": 1568622642,
                            "metadata": {
                                "kyc_compliance": null,
                                "governance": "NZ, non-banking"
                            }
                        }
                    ]
                }
            },
            "steps": [
                {
                    "step": 0,
                    "description": "Create a new foreign claim set and claim set keys object.",
                    "input": [
                        "data/harry_did",
                        "data/harry_claims"
                    ],
                    "output": {
                        "claim_set_keys": {
                            "claim_set": "eyJhbGciOiJkaXIiLCJlbmMiOiJBMjU2R0NNIn0..ROQytelJ-p6TDOez.pZg3rGrg4MRTco5mJjDl43s9dXqh7BTJdGBE6vvhJYqg4uiWt5cLdc5ORM2GtF5btYwIIy6eX2xBLkfmo-6al9ke59Jt252qo2qyeJ7MDyuRThFrhmQvZrUb4IAXNvUy4EuyFSlZTuvrfpOKJL-6Lef-zcaYxNCEA4iQPORIEE5r9SqWu79TraRoLl8X-OeuatdqYvVkPQmUcZuZU-yNwX1eDv-ITLZt5ANpxWgMClDSldi_NgqLO2qDXs3DzxjqbOAC_v3vER2khYuGVDZZuV0NuZWx_Pp2jLWaeeZ8IWQqpEM-lD4ESDi_8v4n_KPru5e8PpeLBbz3wZMAHRChXZmXdUHY-V7v-B11UXAy9x11MZ9QuJD3q88nO4sKFgwSUSU_dXAh6j7Cuxd3s4WiuQt0GcUVktrgeHqWmeOb4Bt0YteJnORr_cN8EhEfyuehTHDVFLWbMJCgO0ASphN_JcN90uZvAqZkMQL9lNIkaBrWIepVMZe1fz0Dp1QgzKQiGrdQa-AqLuPrbhkR0ljY4Ra1wjm5R7Qm8WJ14qFmRuU7OlE4nN8ay11ym54HWytO45-7ovtLsx8kraTbyi47rm2Vk4GWxrFqm8VpAAK4HYBhHA7TV2pitkqj1HVasVAG2wC-hw0lxW_CTLb2M-jx_s3Y-yRv1_I0fDp560FprcXgl74F5HFISQhcgB2EIOyrNFOWt2As6sLIX3rf2eWnAABr746gmX0p3k8BI5kKiGweVQkCUaqXg6O1S-JdhhqopbsteFXP3bhm_cEoHZthxqji3xXYxJR2z5RetSqWzro9BObzYChUH335EnXJ3AhbYkzLqdIB3oKqZqH2Dud7TrkRFP2FFagoT6_E2S1g2R9EXjcnAKbtreVnKyu1YGOFZXmiefSKxPv5zV-RgVfDGP_Qhkjym1FccBYTwbrD9c0xFXazlsItCvdJg5FLoB6frGNI1uK8xGks42dzm6LghGCKZ5bJ6bAdVWDWT3b95O-27QchFIg_svtsVAmfqFuINDAxxfWJGL3JHogjDc_rj_a7c4gYytrp1Mf819zkxThUfiZYVUUpwnSgnE0N7Vbj7MQu_g2cuQ4SEU4wMMJRoV0C4RUmUeaiFEgb24Lr0z9DVnWjT4kdcQ3ybZ2ZwU_KGe3apbzr6jPt0nibYoXEYCNuGulKmS_WZV3_nO8URU8VjYm-T8cDBxorIFqLr9uKSIEcijiYsYOCSC3vH70l6xYF4H6gtWF1l4eQR8UXE0zSxV5B-JFGqWsCY4aR6js1V0pVEexECJp442uu_KWxlFi7RqVTyhqVMamN4YcPg8ZxhlXtpRIjUPIVcbclA4o8QAeKdFdduVtyLw-z7sAHA8fQMGgozEjZkAfeFi0nNe2jBlL6e84jK22iQvgINLxEYrDonxcVGeXk_KNfL7FFknP1h-Pde5bnU5yMXquD8D0W14VQI6g5JoZjSOv8ZCIaPt1aHJ1sVzcSoU_i4adpjefo12KnyzxqiquuPZZKm9DAx8QcRLoutdGfTYlBxN7PXQ-sAg2LehispE6Br73ZIn1RWw1HlFyo0_vs-aRA-tBOLNDdIgbKuFuqVthrQrBb_MjRo3fbF4jHO6HoR9MDl6NIHmxh8mFE617Tnmp0XPmYBsdDNfxAzpXhijnGusbLs1R5fOPrOHFRb5rHWT0FN21D0VqmYb9PtRgoYfP3BQHdeeESazqJyLqTe9xIKFtD8GFj0wGjWbFpEIOZodB7IzkJk4mvBTbVWN_HE31fDh-WvuL6aAEgejE0qM-HaL6YHK0AzTNhOZOlu1Cl0Gpy3jb3BxiES17jPNZI2_DSnuhRZB6j7Kt3HZfaWDcGSWF-TsNpKPCFumfOhhdysLXh8B8BCw2Ggrv6J_U7FITtH6jhIt_nwZolEkdXRQ_Ugqhfbx0kA3C8QjzoIgGDKejd8HM4EBJ0qmL4xzwLh_Gkudszxf37NZlyuj_XacHwrGOmHgfniyr5mCLa66aE3TFhm3sxsJJ26coSM2L79zxc9h_rJc0JvJ0GwAKrLUc6RmvKoT8E98VtBGFplk0Am35VK9vtgoDiodafKOCPI6_Vqb7TZorQDQsT4seKzoBHElCLD5nNv6nH-YZ9jLMwPz2t8afAKecEgQr-oAgJT1HBztgUOJXmFCdTfl4D89PGTSjG16yHKb0SUgspMVua8YfBsHNnIXj9RivNuQFYt6fttXTMbR72zjLztqtaHxQ20PbbIYd3f6YHNF1XdXafdOH-cVr4na3OoO3ji1NrKi_zr7r_BkPpkRxIovHdUi1AkiW4L9X_KzvHjI6c-AZQg9dbmZKn79pq0AEf1zg_2ZplQWTUcP_HWmU5Gf8stj0JEhENNeXE1wqNSZ0cHCsHZ46oc3-CRH2HO0VtrJXuXhXd32zKE7dU9tQSfWj06z37EQSleULdP5ftiLA8KHw9lQIOfqm2eDCruSA7c87YdDEYXEIRP7eCgf-7NjGMocjNGlAM_z99hYvNSGQkaFCar2D66A_JR-6J_i3ATRera0aXZFNDAlGwNqyod7VXp8UExArEDvfOm7R3N1ne31qMlRg0ZSSKnObmovVEZEGiGfJnPLFmCG1uu2pYDzJyjFD7L9qYScbcG5aZA6YCCg_nSFFnwsgknWwrYbqb_pVk5dU5loxGCEn3TMprH8YoNIPHqVzNm2qfAy8MuHYkougbYNKYI0CsgVzQJUHWWurpTeTPB_W7SYY0Gd9xMSz-Naay.RtMJ2Mc8R0TI6ufHloua_Q",
                            "object_key": {
                                "kty": "oct",
                                "alg": "A256GCM",
                                "use": "enc",
                                "k": "K1f6EnctMNi9QX9xmLjYoYvn7mWpQdhkWyiTQLVLY-Q"
                            },
                            "claim_keys": {
                                "0": {
                                    "kty": "oct",
                                    "alg": "A256GCM",
                                    "use": "enc",
                                    "k": "TmVJrqhLusQ1MzIJVe-80Fmj0EdTdQLcSOfgFz5_4_8"
                                },
                                "1": {
                                    "kty": "oct",
                                    "alg": "A256GCM",
                                    "use": "enc",
                                    "k": "YzLD3UErwdmwn9J_7OGA0wxBBKuQ74em1eWVZjAhl9k"
                                },
                                "2": {
                                    "kty": "oct",
                                    "alg": "A256GCM",
                                    "use": "enc",
                                    "k": "LEpL7hH4YuhEBo7saaL5aX-iEk77yZe5-fPg7skQi6w"
                                },
                                "3": {
                                    "kty": "oct",
                                    "alg": "A256GCM",
                                    "use": "enc",
                                    "k": "f3kFY5qKB26gwi_gaHb6BB4sQ-KcIys8PvE0SHUpm18"
                                },
                                "4": {
                                    "kty": "oct",
                                    "alg": "A256GCM",
                                    "use": "enc",
                                    "k": "bTfnvfLILiG49jtoWUMGoLDGcuszBz04J5O6SMuf0lc"
                                },
                                "5": {
                                    "kty": "oct",
                                    "alg": "A256GCM",
                                    "use": "enc",
                                    "k": "gW2rPBAr9rn5C6JOOoMyE1BAtoEOGB_VIJlJTVpnVsk"
                                },
                                "6": {
                                    "kty": "oct",
                                    "alg": "A256GCM",
                                    "use": "enc",
                                    "k": "su8D3UZ-ZE6aWoIxVrJFCkX21B_swnd5k45XEBbYV7g"
                                },
                                "7": {
                                    "kty": "oct",
                                    "alg": "A256GCM",
                                    "use": "enc",
                                    "k": "d-groIeL7kCizH8Jyp-wnoDpSeVkb8C7Xu_TnDUGJNw"
                                },
                                "8": {
                                    "kty": "oct",
                                    "alg": "A256GCM",
                                    "use": "enc",
                                    "k": "rjcC7pXysa-rKhHzsoq0u6nkJJTfntBc5fgbDLLLxEU"
                                }
                            },
                            "trace_key": null,
                            "attestation_id": null,
                            "claim_type_hints": {
                                "0": "Person.address/PostalAddress.streetAddress",
                                "1": "Person.address/PostalAddress.addressRegion",
                                "2": "Person.familyName",
                                "3": "Person.address/PostalAddress.telephone",
                                "4": "Person.address/PostalAddress.postalCode",
                                "5": "Person.birthDate",
                                "6": "Person.address/PostalAddress.addressLocality",
                                "7": "Person.givenName",
                                "8": "Person.address/PostalAddress.addressCountry"
                            }
                        }
                    }
                },
                {
                    "step": 1,
                    "description": "Attest a foreign claim set object.",
                    "input": [
                        "data/jwks/dumbledore_sig_full",
                        "data/attester_data",
                        "data/attestation_data",
                        "output/0/claim_set_keys"
                    ],
                    "output": {
                        "claim_set_keys": {
                            "claim_set": "eyJhbGciOiJkaXIiLCJlbmMiOiJBMjU2R0NNIn0..1YMJFePZ6GtvQT3k.mZqmuEV0R20VAaXX-iunId1Ak73GPu5AZ5ivMHegLAqw9dmGKEo5drog0iOaHnwxU8q-r34bhZ0dRlZ1VP0cL558jhJ2jBJsp4xKbnY81tE2enpOcH2u7qwKnVW0O7AHbRdciw1Thb7jPrNGjSbZar2pB-kMfgjltAPbO-4ybLSAaOGRO3f0ZicIPcdZNeFIMtRxP1vVs1a5YcVxT41v9YNEMC5_iPmgHFxPNhhlp_IhLIPyXZYc9qpJk4wycFHlVFsR-hccr7-ZrNjay5Fvnup059dlJ1tx5EaB6ylmadfisX6me6YiMz7x1a-QN-sr2fULrW4WGrMWy7rYqzlU8D6MzuppjV4uHePt3IjUfo_Qp1hUSCGh9OQ1Hz-BO39L9_e5nrrtFXTU8INk7hCOUqNx-wpUe_snSiXLxUVSmdSrxfdfTVrx7les1QlZCl4sje1ICFXQ1m0ZGkMJ1T6j_5EunlP9kb_S7a3s7At-JP-RnQnXVEPrtKlfZ5NAHwh_nhv3iuFqC7UD2BO97eNciqNieDambCJcuOedweVSliN1a3E7Hzi1PdFXcUkXg5o-m-Z-LTfQjlN4NUE_MzFWnraHfCxVa8BCSVxR8kERrL23c2FXSW8ZE_CngeIkTIRhjDQyweJJJTs8h1ecwnsMJjKSokvTqLMR5bnRmGmv92_DHfY22amXDNHeEa-vWJ3R0z3nVckq23LOCcoNS0wohU1BO0u3rPLAmptWtgfD6VBy_XAqttKJvlNNOgdRzSoBEl_mwyQTJF5GnNEUrh3zNZMA95GoWXXsUz-5Z2a4MCRYmJx2xVTislF-tP-fgWBKog8NvqTq23A-TP0yP9ALc4rGpKlOCcvZpqS1VT9UE0ncf0ol_Z2LEy2ZKII7ZR6oiBigTtxsyHuKvKAUw2DJ9UkeFXYeakh9rmmzjqjJesbwDlukyPn1e43rf3LwxArPmjfAXuJBEjfA7B13TCfVDy4DKK2WDUM3DA_yl8JYVynu1Hdc_Kdvgs0f90tdMmtmviI2uKp8YxXoM9GbAKjTKDhS06vQsKFS1k6JQXAucnjGlR4_X7gWdMf8Gqd-LpCOFjEo4yjN6Re7uONYF2dgLn7AZrq1iosg8fO7tXViSvacrDtX4OFmvSDpilJcnmuKuF86IAlNLllFZmPA0cssKMfdVgidS5dl-QtjsvHVy4pOBjJ5hytdsb504bJoN_Lm-iwIcQNWGXVJZEp83g7daM1Xvvn64v3s-CdY6EiSxbh40fWeJM2FGaRHLOWri1luHXC2oJ0HtnMeK27eABfjaFnHdB330Lh9_nkM_t0nw2RHTYWDGsbr1Y9qANMO1u6TOL-QAOpQKPZrVQ_fgIDLnHwYiyXmRjAjiTlSJoLMpc5KsvZsOLuHEFmWiTVpSp6LP_f31eLMbU5lT9gugzFiJ6KooXpIE2atQyMOjeygvvD0Q-cQAST1vZpLMm3G80kYkjBLADy01ci5JAR6gJSJGI_9JkFbRMpjW5i8biSH5Ne5hmf3AVX1jatavatViQTq03Z2l82OoftzXjGuSEwJG2ey1Ws1suZLi0nrAJ7-AUWSsw5SPGsF9sL4xwUN_ICNwd05vYgbF98zm6QfwhmE_gIfUqcvBGmiQ86SXvnPJWaHgl9F2tZFGSgTq1E5_omvP22boUEA5y6yv7xSPyjsn-p4PbCj61PlyZSHKG9mFUjgIwGiqhVX9S8xEAhobGJcuK7lUcnVMjSb_zIDyavD5tUh4EY7OtdidUEmXs882DjotendyZ_OXRZUo7jfZW4q8eDpFEVB8sxLjt33vhqy-Vh5vegWDF-ekka9Wdzac3kKT5hBYwSKQTJlSL9pYnkvaEejBCtZ2yscMfAbvyYlBkw97xDvaSecdZSx1JnbfKyRYg2Un7S_ViCfbpFFEifHzwcmHWscuKYFo-C7l94XCl_pCQFkjgCB4pUykLMlp1EgeS39Cd4eEJCCS96I0zZYaMnoqrtUMJZkmxqLwe-CfWGj7AWvE5ErbRr3y_nP445Nl3WyobrJyYHrApxrZnt-BQJWfgdl7oJ3ekr0fjxrNogLPTuR_klAhbnh6iLZiBC_WZXvUSK9ACkL4F7fX70dSkCEt7E6qjN4Ct2zGAc6iHkoMKz7dle8JeEUF3Rar4jpSFDVtePEDvGq3P0keOeIc7jvT0OLFNnasYc_x652QhxappnT7V2oCqstACNKVKqTNhd_rnJsBNE_13GVNzP78okS7UJ4cox9M-qMRrVHfEDypy8SVRBtLFkXoWHln5Z_Fzl6l1tEXJSBmKihkBqFa7ch4doWGmpaxQphFCFXEL9ggja0iR59bloMcEreoG1_nQo89sCAuFEiAX51sf14OV5zRA4fQhDiFqj_6vu_w3H6waRKDsojyyqUIZb8X5OGALKzF_z41RUtYtF9jb0swvV7nFxGpB1w1-Q_BtWOxCzaizQfMf1xYcqOj601zRaUj4Nf9croCtg96cHoN60ogksy9iRKhWeMB2uqs1fOiwH2kD9tjf7qzyxOzANC3rfrzSmC54gzYMvgbYQnOLhhR3dAXIfh2gycTmK9UJ6j8cLp80vIqk_XRpdeZZe9BhHmDQlSnYUjU1FDJGa3tF4RnYWUfFtoRGtauiR-3IUy5saBKPWw5X4VKmtIZQZzeYLEAc7zjahccX7VcCvfDkSUscDAdOY29PgYXVKXhp4YfHtOfkuMvhc0x0kyubC9as92fGlyNo9mbFqXTkhz.97qKd91pNRNys4ED_N_drg",
                            "object_key": {
                                "kty": "oct",
                                "alg": "A256GCM",
                                "use": "enc",
                                "k": "K1f6EnctMNi9QX9xmLjYoYvn7mWpQdhkWyiTQLVLY-Q"
                            },
                            "claim_keys": {
                                "0": {
                                    "kty": "oct",
                                    "alg": "A256GCM",
                                    "use": "enc",
                                    "k": "TmVJrqhLusQ1MzIJVe-80Fmj0EdTdQLcSOfgFz5_4_8"
                                },
                                "1": {
                                    "kty": "oct",
                                    "alg": "A256GCM",
                                    "use": "enc",
                                    "k": "YzLD3UErwdmwn9J_7OGA0wxBBKuQ74em1eWVZjAhl9k"
                                },
                                "2": {
                                    "kty": "oct",
                                    "alg": "A256GCM",
                                    "use": "enc",
                                    "k": "LEpL7hH4YuhEBo7saaL5aX-iEk77yZe5-fPg7skQi6w"
                                },
                                "3": {
                                    "kty": "oct",
                                    "alg": "A256GCM",
                                    "use": "enc",
                                    "k": "f3kFY5qKB26gwi_gaHb6BB4sQ-KcIys8PvE0SHUpm18"
                                },
                                "4": {
                                    "kty": "oct",
                                    "alg": "A256GCM",
                                    "use": "enc",
                                    "k": "bTfnvfLILiG49jtoWUMGoLDGcuszBz04J5O6SMuf0lc"
                                },
                                "5": {
                                    "kty": "oct",
                                    "alg": "A256GCM",
                                    "use": "enc",
                                    "k": "gW2rPBAr9rn5C6JOOoMyE1BAtoEOGB_VIJlJTVpnVsk"
                                },
                                "6": {
                                    "kty": "oct",
                                    "alg": "A256GCM",
                                    "use": "enc",
                                    "k": "su8D3UZ-ZE6aWoIxVrJFCkX21B_swnd5k45XEBbYV7g"
                                },
                                "7": {
                                    "kty": "oct",
                                    "alg": "A256GCM",
                                    "use": "enc",
                                    "k": "d-groIeL7kCizH8Jyp-wnoDpSeVkb8C7Xu_TnDUGJNw"
                                },
                                "8": {
                                    "kty": "oct",
                                    "alg": "A256GCM",
                                    "use": "enc",
                                    "k": "rjcC7pXysa-rKhHzsoq0u6nkJJTfntBc5fgbDLLLxEU"
                                }
                            },
                            "trace_key": {
                                "kty": "oct",
                                "alg": "A256GCM",
                                "use": "enc",
                                "k": "wVdhqcKwzJjK5JPDOYwOEd-ln_cFkngdL6yRkOWGYG8"
                            },
                            "attestation_id": "kauriid:attestations/f65bb274-6e1f-4254-b189-8b6434b3f93a",
                            "claim_type_hints": {
                                "0": "Person.address/PostalAddress.streetAddress",
                                "1": "Person.address/PostalAddress.addressRegion",
                                "2": "Person.familyName",
                                "3": "Person.address/PostalAddress.telephone",
                                "4": "Person.address/PostalAddress.postalCode",
                                "5": "Person.birthDate",
                                "6": "Person.address/PostalAddress.addressLocality",
                                "7": "Person.givenName",
                                "8": "Person.address/PostalAddress.addressCountry"
                            }
                        },
                        "attestation": "eyJhbGciOiJkaXIiLCJlbmMiOiJBMjU2R0NNIn0..g5ppF20P8Rv6m1ug.-c4_DfJIDycv_KDDzxOnnoVMWqiduu7hoKfd2a6dC2BTZce0XKC59RQhMIgOtKimpBMy_49o-8EPx-HagxbfaZS4hzuQ1AoheBYPypzP-HloZcWfHSvKJfGQDt6JSrf4He-KwXNlD2r3kjCRnIFcIkDUWjcJ_2ykKpBFiJkX9tGVzAnin_7TXE4PZmWq_azrjG7Iz9_vnXQqtj5IjjJRcsHTqzCuNHrpkvBgunB6JFQBmUTu88cwUzAOX0ZS-rf9-2aftsTpUD8XQ8dZ6ePbMnkaLbwhMt19_5KyjkYsmwtPWkjWIDVwv9LwWPcYU8bF2kZgzYcxkkpm_57KEoXGOeesocU4TfMxXHuAqovZLuE2do5wIDejjrwyEDta-rTAMivBi_5r2HKaw-tqy2eqZYZnFhLD3nakyXPWMqELNOQHJ5_9fXLDLjMcM08fvVsG6hEpcdKWfGB3TynLYroauVs7TuuIR_QjUE3Ptqhm2yLouhj-D9y5CdSO69274okCIF1cOeIf7iSEDo5Ps7MONowA6jwswYtaS7Dk6wKveQtq1RKahysBdjQBX_f_mXk8Ui3S-gebTY5Oj6mV_3fUKiLBu5rRbuXP4Qn63Dul6afQhAybAonB2h8gMz9YbzEOmn_rUU1X_rgtFmtArSXSQSCzD8VaJ84KZMeWf_l_nRT6xV17_fUxXaERAM97RlZFj_tbMalzgxBZSpPtA1e5M91AiR4LxGTw_1dwuhlqXgHHkEP5xNhdKLYgJyuVRd3UzTnLplHDWWlB_nV2HU-SM78pP68uGqo5-DEtqPJOzoRNbm0MmJIf9s1C8eP44Kh3CeWDaYgI2IhaH0MjHb8f1lmJJc0swccSSALyCqjuP50kseLHR9vj7OKOWDh22MOsz_uRJvSrSqWTVRZb2_WAtVVh9Lk4Wi3OObVOw9n2MCcbRXuzZvNtvvfEIXomUwY40AqHk2prcYdXvC9AXK0ATBcsSHRDEk2L-3ejqxDC1SlAHk28Qg0vv799ruCHSYSncU8YWF9X3N3vyrGJij-_pYmEdZeCKjYl-yR0duqZyU-tsOEsmUySslLzsDlCOuDBONBCV2sHQ0ChlBOoc8ox5O128uY1TR1s5-uId6hYMfEdn_vaVcl-Ej4lnn3LAqr_-50rpP9Rxp3-ei3Wumq-gNDQLzODKrinOh9YnvjEUVTbmGNw8aMFQy4EHJHkr6FRnLZsdrD7VWFD5IuFTLboulNPiJQSaFnzW-NKad5Ju53Cl1VSK_tjRycsI6VqJ6o9mI6riQ-phbnQbEtUWdQ_dolwDHGuRsXzKkolGwdQWXxCQqHLmH-FPwWAqaPY4R0WW8UK-TFMFR9xhYfRjvq5WYBH1HNZm1ohN2t5tjtF1O-S-ETsskog2O8cvcuJC0k72seMuychrwjKhGAm36FwPy2YR5-uWMHpVHaCpt_L-3DQqjh98c2v3v_5CTbR3lgFG73P1MdrwvWnG-xxmzuDWfY8dXfRhEnNwg0fb-Tn4WQ6tEKSTOCT_2SOvwvTLy5AyndhZpdhDqfa1qhtzpDOgIBUXbK2sp6BiXeIA8MjGS_AAjlJlK1VUi7kjQ8u0QSojNH20qHMWWjraqvHMDXS-tsqLEYzY2wEdivstXGVnpJc8Tp2vQdJVAa5HJylJm5c4nFe5eNrCkndZKVGWW68KOc0YnsZ0qDqeJ46wdNCiQf4VfvomTxpk6yzJxMQ-64JVtWaojJIh5dgmq-_AtROS7httwlGMQQ4WHzmdsOeuxQQHswOGjkDwmzc0k18bi-RazCqXJno2LLoXhtrdhVEBJB_gAa8IUz7YmJIAlNO8oHtnNiuPSEOSAaw__VYG_YmmMMqK-6LFPgMuti25u6u2dTW7dK3IrdV_DsnFK3c-coVNVa8wn2x0IwTTNrDCg2MdWKizxgW2ti9tDk2jFDuauoa6X5MKmkRoNrEzeURjaqje3RFaurtolXCGsbsyipjdzIsgkUd_3xNd1zfrs94vpL4T6Ebdd4KQEj9ziqwieH0t2YdJAE7rTW0B0LvOQFIpX129Lv3hlDNw1J0LamJYpxBe3gOnAGk-k8lt-l1CMuUXFmlNQlU3Zs-Slp3c0UWMwCC-lbXBObwBmJgmK0tNKC5Nq0jEyV3EhtoKL0OzIHjWNx2q4QIJPsyOV-TZBCnpO3N40WiiSlrLmQ8d1yqwCvZ1PQg1jigRAn1RuYHDzkwHkiPpX9P3hdHf6VLtMf_3zloksW4XuZrdEGEwg7fgZShKQ6pBcSGx2meM631VXWMq-iyrOBaK5Ysa5sMzmhRSPHT4TBCqWgJTBNck8MHkgXsR4rOBTBHQyoBxpUQsm7ya5-_W8Y4K73HQbvYStNSr5OQF7av8So4lHkoXpK718Y_w01RFe-HT1sFqqepED9CC2V5y__jIbSie7tmogadXnD3oePBL2G1M1xHbL52f4cVdUSsIJdhL5vnCS9p2pPiVaB9KjGIgfQ8BrbshayfBmVtd9F2Zw5qEWh_VBaisJwh3DAL3NXrfSd4rJC3XHXshBj2qmK_hprRs4PQO3RbLWDZEjhpTQuKgB7RR0yTyOHaFq2T3AjdSPWziNXVZambZD98w5-oQKJQi0MFmZCRSPi_PMbY-v65p6Zp5VhLziFob6vta7ZXgxUjDFIrluFchTzoEbjMlT7xMWrot3tA5kt2C5_ZTRazeWoSEamfBg-vIu21Z2C_nZHDiG9voEH-xeVVVELqnPchvCsoeYpmW7MUE_FKfT90z7xtyIUR6yBddWCnWDmJ3EOQGH2ltv7lVZXm0aCSIFfWCpZ7yqZiQdcCsqIEmct4AzCGzmojR5fxzYJ-x3eCgBLZDp7Irz1QWhnCjPpuYTfYEYO2Q0ffenz_OU8KBYcGfZMwwk6KbLqxmPU2TqAo6Yu0UczmRHJAaXUp1K8Gp4lLxmh0PESrqF-6mAbzPNO_5xM2-LOq8y7gdfkenDVkbXsiAJMsalbOCn8AHs7kNG0hhWMQ1aa8E2odfiNf_4K5mQyuKBIQ3c6pFhGRpAtu9-xn6OfsPcBHRicWsDCugrE_4kN1DhhA8xH47fvtlmDdIYFqM5iIpL_dAKlaoam-_YnYYbg1btvlPVJRv5AI5lnErVU7lfjVzSD94vzvlrpw5FjGyb9LAHVFBg3iXpIxl37HG1qmfWPOxfR56UljkykOzFRtHd3ajpT23Lp8O6hS4Fh2ISSkyLyZyiVKaW7GuqObnJOUwP4a8cIXcA5WwJDT_wG-c02uOqoGyzytbzwf7iOV1KBA8j0T1rUVEinaWnoM9S2d74bjyxf9iBr0sfE4D3Wfz9S-ECsB97EZoE6rpyDJib_PmI7UMIGAjvCyTFnW6bTosYa415LHqgMX3a2xC5vGryL-Fr1sUCxZRnLZUMuVlXwaqJKN_qlL2hDzACHoDfR7NS-Wtu7r787TSFXeyEPwtvEkKPlMezW42onnT_J3mvUDtaXAELkOhgq6Np9HUiavx2noAldrJSPuM7nqBMCInZ7Yh5iLxeV0PmVmIDgWKBSCVPRcSyjM2VY8C7buohzY7D3ujZtyFO_H3tXP3oN7p6mHbQ0j7RxfIHYgOaofrXU41XAopJrFmYxIVzm8Oihfu12RX4WjWvRtNweub8apynsOuNtrrZau7W1dfvxMOit0jZKtdhKXhWBnfj8cT0IXgfP2AaafbY2Fxo92gLUR4H7LAxsYdOwN1rsV6MOipLZtimFjXhId3jlvqXOzy7eBpUS9-PeAkEPdMf51zJbeP809nHaN7xufMXvXl0P7LDoG0j4oKoQoozPRhMfR8QcodaGA7ZDKERddXnCVfdg2TUz-NoGPTrC1GAMOfa26cnL0NfdzdLKbEb9RyTo9HGAKty2Xxs7V1UgIGsDhjUmJsW57RlD-2I5vF98U4UqfwOstJRvTHptT7oxp0uu0WsrKZDuC6jVDvzYzUH9evAPIPeVV0EZQUgXyyxjpGPkihM0nzlWJCg3GtXUy9N2pd3HYE8lAhegVvf5tF5NMINjk8IuqvyffKmYWRSTyEz4042qtOOMChEc-hkutaokNMhJzKhtvT1H6NkhkQOnKvRjerRM9xdoxY78f_AZE3mNv71_s2vjc8t72X7roKicLMye0TPraBpD3CsZ5EEIu8InXtruhgkNVAlqFSmnTTZmHubepsF46Ak9Yr2Dcbc7aH6_QOV_dzzp_pAA8m3zoBealso_locmVhcspHapMDTjyzXmGHGuzi5CC86AZdxQYyMr_Jj1sCpwYiQ7MSR9I5Rmdd013XTe6easNv0kIwDPHB3vT2ZPlOTQ8Ma1N--0HrVwBryYgKpj9ZO-uiyn8-gAa2xPFbs-D-JxRpL1ShlpoTzUhllH8p8-H8_T1PmwTPlxmqLt8DvzNpaO98vCZXo2SBMpu5rbWvZILuVcs28n3Edq0D7DEwGu-bgIsp7qyN2V6WNbrDWuiiPA0bFzOVfl1wvbU1yZhvkz6-8tljf1Wftx35HeOEOGAd07x8UYJ8AUi-7zMUqQ_Nej_i_FpeiIDSHhnZCnp2RwcRvDdqYX8xx1gj7Kzw2dXINJ_phoXDPrSNpyGygc9tiYTjODmk1T4JRimpAxqnLhyrOVvf8cWNh7lVJSo6zoWxKFWtGEx60jQo6t2MqLblfDJ7ET1e431fRAkjiiwo5mTnk32XtVSbREi3d9_pbkgoXPCb-uED9yxqiyg1kiEXVOoQ-kWQnyNc6j-Lsfq9DsWyPGBdnFd7m2e9HjQcsstqEJ3emzHUmqWMkpGEpid3JIftJM7imYu5gNBiuyHducc0lTE0z8S6arZa3A0JM7fNn_GzY_yPOEIyUG8D0rmp-mLxgLe2P8Fth-CpedNz0XhhyvLbCGR5AbPuonDwlKa5cHRB8GzcqUUjq2II1UIjsMQDMFbUO2hSP5053nE2yYxE3D-SQa9jT2Mn68V8ij_Pl3rcdvTzpVjAJ49eUBgNhGmpbuigF4MEl6uQFnQRy_Ez6juDsE26AnrFY4eV1jcnfDXiX6JmxxTKNMa5k8pEGboDvDNOTl4_wCD5ukJYGUkw07opIVn5OXQvCPyn9m7vuo0eNlf8hDxJNhS4h9Gg_gLp1J6O3bzFAwdzHmG76MRWqIN2iGG6xIm3zwP02PZUNdQgxJv-i4H_DXvLAo-qzwgNOEfdHCzQx3tWbUX4f1eJPsZOPbAIP8BU3Bnlv59WX8taKLgOh1eTaCJnHlaGf9sWNW9XyZaUdfnscFF_0W6th7sBagNuNT9CKkGcMu8I4WnCnZbGRUAvrtiP-C-iORkbUmH3E8chm08Hkr8PNfqRPdHEVGl8g-kfocjzF7atdHg9OKvjS9Vy9kg0qNvfv9XDGpaS2bY057KSX2J_Ad2SnEVbnJ6KD69and-n5SS06T6ZULQbjHbUAJTBqNiBMzruFvX5SLtaH5xafXOw8Zb9b46QacBHChW9snLMuZCqJDOtB7DajQq5k_u7gT-RGyoLe_82aVHTSx9hb8MoKLs3diWzNNkfaVmR4HCmaHSzOA5yB4Wc91ipPx6noZ_75COH39AV0BlmQpGcHZD1LtEZZxklShaljUXEluauDKxm2y2tSVUMT_Ui-BVSnXWj4IZZFiQeAmrBa8e7fSeWf1tG128k_LSPbA8StIvqM0thsvKgO1z6vG0HJ-xBJEC7oc8l93f74NlGM943Pv09sRKlsNZfFHH4ZP_xchZPL3ZArgLhSOdbE5K-m44Av4LQ6WjPgQo1F-YuOC5e7ZtzIq8v7pINb7EuAziA3S5w8X_yfFD1L8N38p-IwZQrWD_MMUxH-CwGCKIG3Qkv7IwN5CaC4Oei5hpxJsH8WKYnJhem2Iv9Uz_qDtkUbP83kFsr0crODugELh8WvMDsaaHuXH8HX0_OI3FcjAb0dlDl7zcO7BY-280Wy5U6lVXTnVn4NnUKLCFOtkmRZtIHwqwpAS2C7w6g2ep-15-wsQjXAVr8fvtBKpdXtRJNJCOzgOYL92ugpehYStz-ngAlUQOhgfz_40an6db0lIatbL4k5QZ4bVd2BlPW2SAeBvhZK2KJLi8rcv7nWyvQD_PtH7_CcWMrmCHAJT3rqW01s2N0iwZbz4PZl7PHPUwhjrKJSUd-BowlZKii2mbRb9xgav1bpCiuxDhIQvZO9wA4W4om4katXNDXjahm2fyLWd1Wnj0tcLNqEcu1ktmxLRBn-P_T4KkP4j-HFG-mLCHbHjYwOq642HeXq96d1zf3X71zRKLHoxM7EN4onqg4nNiclrlaLgPCEzYEpvJEn_ATkRYR69E-4a83Gw-8Sbf1bYhuo-axIx8MVoCNjyC_DoJtJQkKzwOn4N3CnR5a4YCh30Oj3EqrW_t41viqisgyrI8JA7XskKJqk2Fj7HtUmNjv9QTEAdRfAzOWZnKyKkGlLos0DtqoLAIOUVNJpfO2WsHEOWWw4I3OV7NcdRyBeYTrOrCKvkTXaa5m8ObWtB2eK5kOI_y6Fr0t54kr02yZmEFYhsXqa0jfydCI0B2SW0ZBDR2E0ValGZl85rx--fmmHIp1HixlyZlJeV5vSyyK6Dj2t_I9gi9bh9c3DNJV2UrE1xdEV5w2q7roq0-YDgwy9gMZjIurZL1W8gJSCIG-RWz-wc1KmmORE-NbOjwt8Rx2nqUVAv-5Rcsi6B_TEvXwvmGCC2AAcIYPlMAi7D2bE-6ZgBV-3lvvB7ArwIQofACj7ko2ayN_IHEEYGu00OvIrT24ZVAutVD5TmuTskMjz8EA3vAtf-rB37-A-Si7-DIEVuxRj4URO6mRmgEW8F5jIC1kCU3o0pf8CNSXIGKqpu64yRblLfWJL0u8BTVLKK7qfB980jTuxbKXdlf0290Cb9IzpsXyDvj6fBLZAsC9zfV6xFqr1esYfSeRmyhdQaO7Poao5GkN0vCImNmhcNzaTwZWmdmcnhNlCvhEiW5-qeUIYMRAEKGYOWFkYW_AoSso7sfMmH33MgOJFI6DncB0UGo0-LLJ-uWrPpuJGSdthIOUQrStO8eRM9MFCNoBLM05MiBhBnXMQn4nDDBroAMVqFW3_qUzaniUVYLPt_I9wVJRQDT_zP6M5YHTvhOYuOj8IN0egtR_rBNjyvuRnWshr6DKwG_NuPbJmK9t_NiCmEalHxqCW01AxkY99oKvsF8hgYoJOmhE4TkIQICSUoyDxqXWV1Uw1vGalP1HFYCnU8blvV2ehQJQhPmDzZDJkVfoPLA7QnQWidxo5_jpMoAeEfqHudhlqkaTwza93JvBloxWrhz_zz9jz-2f3LqC77WszJi8F9Ch5oClwjyBgP4SAPiQBo3F4MBmHDvUYVrhvNj7gBxIG_gDh2TrRyDKHL0nKdA57l0PlX2bkrf3tdPQGFG1FLiAIXcq58aAsmrTaAs9Jd87rE33soVgu_Mj0rjTVWVEOgryLKQjFM8zmjQcFQXks-hiWhH3wjj3_basq3rCPYt4f8q7UbNyrfAJXnTQVASt6F4cJhdEDTa6g8o3pWVk2aMPLRBradpyanKXbanG68IFtzqApNovChgKLLKjnChubqgoFf4MW4kFYzA-hJdmeMYg2zYEqtNJNslyVBSGKUDItMdIMuvHWIAAsAtbMeaYvE8uVumM_lcof7Rgl1hTz6z2UTheFD28xIqNeOkb-A0PSEnFpkxHSYOIbCJHeN80XjvTq0D6K7eFQKMPzcjND2xh2FZjCcxnDPbKV6JYgidEnHWBnSd-06WvI02kERiMa393dAxhJLlG9h0TEC8TjeDRjmXnFrqjQ4BEYAwB4Xt02qVJfFASw86ZIyhAETvdADwoiRxkp04M-LyYQk67pgzAYOYmeYsFzsXfFFCwcIWfeXj__mdfRqrmgai9WVnmrjoCAk5wPlNcjbAqMYVMJD-c__Ir0N_EUWrJ5hcXjfZSf2ZoDTC9FJR_wfG5aL7Wpn7PcoH9o-8Ld1LC2bCiWXSRW4J_m7nA_QtDX4iZj-imP9570UF6NnGjmrW5ghBEFfcBrIjx9r0nEcmxdMhrBbqpKsugDztL3YUadMBuBC-T6_MXydlVmAhLoWMQ4tjTXPM_wsF0Mw5zD7B0_oZsI8S-MXzpI4Z6B4a-RJaYuNU6ZA4oISIbsPE_xHW1AgaVAjMt0YU82xH6uiem1pLXK6cz-sWl2sy_raCrA_lkfJHY_-8CjbuILwbMPVQKd1k7CL421Ellv58csJeQWCPyFWNIfAlCt6acHG8qyVLfuZ5-2LQ0AFPS2G1Md4wmQcdSjWVk98CYom2vXsn1iyJsa_tbst1A3wkP_zziAqhFiRK7w0GQl82XQkvnqDtU5b6T9MPsXG3ZxWGzzBH57UVSTllAfB9wGfrPMSTLAO7aZd6ZF4W0Pv1deNfL6C8UX-wsmdw0vLv9_Dhpr_vmxlDztEEF9Hul--Axoo6VShNcNi5NSJmkU1VQcPFqOq5gbaOmGh4kaPgNpuIe3OvL0c0skND145pa2NUN87Flaa-YddRm7KYSq-PiE6D6Bow_eXkqB299j-122goOWafRznrcXlHNwG1pXU7gZCxLnb6D29MN89m1NNRqLKNyNB_jdplrxCQR5_JrP8SLhxTFaP-xEBWofkTxfe_IDJTPpX8gDeO5OYFSn1WM6r4tSHz2xfZ1pbi5T-R-yR71zojlYAcI6XyMTzwINP0lbjVsPYfBjq2hgPS4I6t15QUlYIXHkyaFNTvGrh627k6YcFDoulPlEpqFNSzdEPyjtKEObtv1YhHH_4B-HxeT2oFcEfa5vNChZHw5Rt-PE5r2KH9tqrzS5HMYx-3xwHZud9gQUA0QvqkX4aXGqkEmzkpVJvl3BsC_f2488hiTK1qaz33NA1FbO0oNaOdEMtToCvvvMsnCvfV3z1_8SCYZ0B_3etM8ke8XkGoNOVN4p0NGuv8JRFpedYNwuMyenD7EWto_CYk7L37d-PVLm4bgFuczhXk3xasixAWGedM8-Aa7GwnC_FEqk3yX7hrHzC8JuW-27Ht647oq1bs2jPxXYyBUYz4a0xIGOUHyC36hEL7omBWROAzTgfTIv8XkjD_Awp7ganuYLgXm40JgZXIT268W6ajtpJ6ztGMmf9dYP4Tq_L--BE31Nxhl09YuJz2lHf4bGysqPRK8LXzynyZpwQsppKOjXlugXYDEJe_e8sBDWb82gYXbeRSwZAO5IvpskOZ-Tg2npvOo7ha938n0ZkvorhKRZQaQuBJhzhN7GAt96oyAe4WgZdXdNUOA29RVWByKoJNIKwE_29IqQiO97VvwEGJw0kDOtAt_A41IvDxUglzY2sjrxMUuBM8_BkTMX3G6S4cjLeoj0n4baDGMj-HpMpFFkvJraWFb_k79TutROCUqR06gUw32Zu8jU9CMvknwgdTgxVNlj3LvM12XTq9yv9MnyV63PwesiH2twjCnLV_XXrvik90pzgUqL_y0WUbZ_sqvZuvDQ3RTCvA5rZQonyMqmRBm-ZO-EI17jQGS2Nin8wj-JgjIZ8gOTFk-UxqtoMKcAmDucoKaNQwWoyKW0LZtACDMHAfi6HGyHrJDew86QVN5KKo6ofp1StjqDkQKSUt7StpJcpfzvAdsHBQuQlJERnUzpT0qYqf29c2-QD2CIZXGIA826n-x99IH1UHeAireeB-pBcehVjOZ78I66fdWnop4ZZthSBBjsYEFdG_8B9nWrMbSBKphs_CwH_l5xp7ni1bCjGNLjFJWyVimYh5w3HtVHLKJFTsMxv8PO-pRz-Vj_dqdMfe1bbPNIVIJNTinAgnwqIe7Pbih6i5GE7UcSWwwwedd9v2PoUMjuK3O1lPJ2Qm5Mt2GDYfgibci18YsUbcqBMbEq5hlgMxWzP5DDbMSQd-SZhHP8nI68RqpI2broVdKipaEJ7IPfDIsX9KDZQ9Dyi_NjYK43uIY1NhFg5wL7VG0UuthkgSjmIJMfetdGeWUNn_Srkq41T33EPO0FfTkEgDJDZsj2xolJo4_icZyIQ-Gj1D5xmb8ys-0SxLeSrub4_sNChXEZB-rtPYPLKBCdKGwjcCpRfXhhDhiO4XoRz-zqc_E9m2jQtBhM5xbPrA6HGQB0ATFNdDDjhNt4l6oKE1T9sOhl3H8Bdv770cyzoTOfFrO8bC7wSPqH5tiVdOzpbzLIsmUpZjATFJ0AN7Q4ocoXJVAIn60l-sKd3UuSuXwLWv0We5u2ivUCR66k5_JdAa2ReIxxcJL04lOpqHaFZHM36IBPd9zZFBWGsB9_EGPGB47ghDLGKTQ2haQ_vEThuSSWo4pwcenFZ8mVqyLOEICbXbKAk81Tnac9OGibY1nSR_LFonOEw4pQ96wz-DTf9lyXk13Ubtf8_Tk9sEpcceQIgyd7JHtElCybsoH1jzzOYfhiXHbDGR1wljTjSBrWrHXgOk0zM8PZJabDa952vzpszqCztOGfTqqk_cE4teF87DvV4Ve8Q_oFu0d-ZtUfGoec8CPBkGvlmKbgLPAddm7ODNqZ1rvEQl_Pyu2IYDr3GMJE7kXzob1W2CdSWHDEwC4FEp8-WFYrgtGbCzCSLeRdzXqUz9np19ZpkQOAUZcW_LxE3fqDT3Do3CzXaAdw-UM60INxvf-1ghkrfSZUFo_V-hK8A7bgyfo-y7gTxeWfKQZktFhVq2B8GYhQNmwzJ6KTIRTYJePrMin4vVEOS_7dpK4F6KHWtZyMoQ2SZ0UCdVPdzSX5ThXb2IDkDXQ8lS36jfKodvrJ3cuALKVTnDPukAHo3DtMDmO6KMdDjO-LwYx8YK7P1io9PR8kaMjvmg9sOWsSsd2RKMX1AAj99tc3YTZBM2Vgg2YEyYFaS5sp_wPv6wYPbqONqJ7mWka4w6WfuzF5tuEbTvWzqfZ_MPmHP7ehEEcHFiMLK--B3lIoZBg869pr-LUQOJQ9S0xv3IZGtyH6BPqYa9Xp0uwrnxi3y7tyDuxS4_cqZy0sqGwygUgGMqo_kGGx7k2Oubpe9C58KS-iSCzYKRUS0KuGuavQ9qNTc3-XtLF4qhFUqvFNN81qHDqovLfypWJZXMN1ea6FArZHJjiMDOgnyZe3H9HsHYGNPKRbVga76TfebGlm2QH977blPEnNrioebkkEuh-cVggff7zMmzTpmd1rlU2f7fesJsI8zvtBrly7JTPgicxIALCJ0uFSnvK5gblCb22f_y-2sG0CY4Uq1RFp0lUjZZPgvzD708iJ0YvSFBO5gyX7wRQIcoRukaauGJyTki8wogTuGabc8xeSmhEeBEJjtWztASUS3_N5pPa8FphPl4epSiPrbKBqQqGC2bkQRn_Fcg3FcbApOuUuOcDdeIcBCvAfMLMCZMsMV82Pj5LgHbsevB0twsoptoPRElohtpPkDbWVyz6ftXb0TXdje8lcXtc8ZZJaaTXHT6VRzDPG4wKNeHMaXlO53P9iGwR3rmYWvwuqfLMT6Y3Kqmj4UhMvKP4MqU6mR5bcovvyM-fcSkMUyEdRotsfQFt2aFFIKVfIFwmfHrJexV7tE83pCY4STpVZGbbXagRo3PCr1r6pk-_qslyqy1sI56v8cyRpMNSNTLanStqyHV2yvCLT5P5HZJuRBNg4cSY1b-jrteO_qHKPDBtzBbRxrmRA6W3uscZeGZkPCYi8-PY69hjaelQq5Vg4h_6Pv1mo8dneYG_AKQvDQZF30lWa6lZqtS7KU35mRlz9Rl-ly6M-oB56sm7LOM1v_zipk09iklbTPQFWrdYM-VSqsnhbOo07cLnI0Vu9X22pimE82ogwlB8GeQsByEWsg_uYShT0gxhcAPY_QTHrbJv7dx2tssFRSkm8xl2mEbNSYZca-u1Vpu81UxkEMwOGVJicDo-XmG8auKotTqoWE2JMJKBuOzPmr-l9BLiZH0oH7Ou58z5xrfBnHKTxJJAYGdc7BcheH1ZK9_i0cADHG1hBtgb3SR3DqDGZoohhC4UtS0rVHHhdFlnbOfYLqM70Q2jFJZaDgFMJ9815NFZh2JS-v8-K56UcTIIt1oty9f6fiev8euM8fGGZg2M8jjukGMMusD-qVOmjNhzpUbX-mKLBvbXzlvbSdyOXpMQUDcwF1JJhKocBBsLfRhO5NqG-xVU5vKM3AO4FmZsR2gACbHDo5CjTs_r3Qoiwna_2Kd6Ynp38V_CqSDs5U_-JI9JqIBnn85KpJdm0oIR7-2rOGWIMpvKFfKRjojICgyH246m00R_nECw8yRshjjp18ivrjxkDDxrx-JPkz6F4B4vOgoRPTkDRyoC_MZSQKmXh8m1L6-xVs_6P68OdsvLy-POGvnAVRRpE0I7f7LlTj-lIDlf43UgYFsgkFmMj1UczNzYdonklPyBAiKoRnO3hgIjJEHRiBv-ExEXFSTq4nqzHooI9GWoKgerUdAw9StngMCgyPuAheaC-rVSQEHj4shspS0j5TZzMaLUVJEcw.LcuYLgU_tHkLVQBYG7qASw"
                    }
                },
                {
                    "step": 2,
                    "description": "Accept (counter-sign) a foreign claim set attestation.",
                    "input": [
                        "data/jwks/dumbledore_sig_pub",
                        "data/jwks/harry_sig_full",
                        "output/1/claim_set_keys",
                        "output/1/attestation"
                    ],
                    "output": {
                        "attestation": "eyJhbGciOiJkaXIiLCJlbmMiOiJBMjU2R0NNIn0..eVRYBaWOYanSjWB2.2A6ThApl8_67DTIvM7UhXeL4sO0amIwkoJTpewrwVzmzyRgObAvJLhnoc7gZvpY-dyZjehXEJpVGsydSWeL7bTwlO-xTg5gzWURqgq8-tANcfpwa9Yir_exGMTrd3sU5ncPhBetmy0lVJAnEK_lN3r58kaatSABTIFAGgC8msEjhG3wDfv20k72Zb-52yCd7zfyY2XhFpZizeA0hwIV9Iyz3_Uw5h-777CuRiMhdZ6tbufeuwwB-JiU6y1i0tHg2CmJu37smBeJtG8ZKw0TVAyeVgRqyNILmC9svs8QAvSzkrRx6bXkv31EDFhU0qm4NC0stbhygJhm2Md4p5Fgznp0zogPZYH42_-6AcmwfxXTw3LXmYTBVjIsc5sOC6bbd8pItvt35VYAoqJNewlvoyggnbnwaml2YqHF7_EVGG0R3mTK4fP-XVYQdxk1OQIlKHf576Ej3pyHCwnx-1ue6PRUByznnwtyqJOlp0n7IOJ5jJ9KT_9VAA224loNQ7ABp8t8evINz3fNPSW_B6il_PTUZqT2BddjsNW5YoDanSA875NX9is2pGqG1xerLPp_bi6JOs3xJ1j0uOBWVq8rK-9S31KcIoM515vJ4wFrJWgUxGu8T2kEPyDae2IopHBcdK3mNT0sCcxhmtOMla2iESb2sD11S0rPGVXoHuhqgLT7B8EcdaKnNd3UwHDIpVdt4ctaqlSvYm0n3kM7JM6ioG4CvkkdVeLFBXJKJtag5E7jsRCAk9kwCZelXAFqsn2-fZv7_1Cd9w4OQH6nvwCFZzv9nBUT_GWvlTt0mXTyqVpXJnskPa1doM3pTrW0y4SXayqzNCVQk02WGU6frlxps2UNO5noE7HV_l8xSsyucD9plevm44H1IWjOg08oTXawox8q5mivBgMEvrNMsYYxCwnwGQFgo5jheuWm1-A_aLjBpxZpQNXFYmtZE3ZZ-FwwnVAKbHy8AnknY35G-sDlnPeB9j4bTfAB-MMf-tkq-tty9Ed1A2pZv7dVxS0jhhFfjcmBGZn6M36Hve3hR8Yv_dwOCPuaTr3xqUEqxQ-TUWYgH8GmS0P8BGtnbWHWtTc_NHb-Iy65gK371RA7IRp8pFbcKfHOonxOygW0CToXjLqg-6i2nEtj0CIcEGeGNN8_otX8dyCqHQlRYAvtQDBlSZ_qFVGRQzpapD2ORCniT5OsLIyktsMdwYAbAy75y4E61Am2N3fTf6GrhTaHELeCdr5DxuZAfLO-dfphxvyWJyFPOolM_ERlgNJoU8MNSChiddz0TW1j2xJ9W7bo808IN1XOKYDJRQR-sbRDAVU8cNgyhRe1PfaGvM_baZ3mSMVFBQNjOLHkQjaEOOUnTMJ1CxgmJntcZ-lp4OCWwq8Qu9LzbknmKJOZaG9p-5qc9_o6YcONvwALH0wiUn9VkxFLozCYn6pnmzqZw9C_u36R-qFpR6NDlGR0q9J3ApXtfEcUiAA1Y_7Mr6ntXyOyRsrpUuSgjdmftAV-McEN8l8R_RfzH2Jgbu99gDg-Fq0Igm4j4_Lz4RzmEFkZeY-l6jWvSQWQf9u1MyricZi86oMMGUv4jqC8Z33uwbLSDam-STALIdXhnLZyqwH6XvpDcLt2u5ceKw9h8DabswTCwNVSIDjBsLWWRK848FDSev2sinoxkw4mpYJy7KGgEo6-erYbOjfr2AivH1fNcMaVXnUBnESe7cpOAtNeNX63xhNRt-2vrs2GuxB2hGtgloLnxHNRtj6RtrfC3wjNPZ8tt0Jgg0PJ1H3nsr1BbJdRKR9QnV4tfuk9DyKPabRXpPoWmClYxBXNtARVFMVo7X_3iKvrN5L5R_kIiCKk6envdMU0k33Jn4NJ_9U2OOmGWu777brZHjk9o_cV_UlFaSnUCYtgoX2PbaoKvSMd3EEslKDL2EOJ5WGku6t-kJ8XERY9qE1Dmn4ECJzk1YG8dITESPD8HetiUZTtaSfKQRPKKyYXZOLNvP9e90zwc4B6FiLfaG6zpopYR985bB4m9fXAV7SV2U7Y8-N7gChlIxS2IKZrolA-_NXT8oW4aFImVsESpuwbZGaOQVAmLGjqq7IbPHyvFvHFVKlyr0oRjJf3C9-fdeLrJbgWFiy5VB-WwdMwM7psdR88BcYH8P3Vpjxf-VldxpTMtxGzwjgqEMBM49D9XTHmgAA9FA5J02bS_qkjnb3X3s67f5KjRxlygqR3aI1S49Au9U9chMn4Gd7h5lnp18K3D6TY2uGL2zrPYNQGU5-bfy6OgDEj8IpXmrXYO_jKA21Wg_yST3X-OXtULrL0HFaUv8fpRM4YEOSTCK_F8Wo1d8pt_LW-9hE7GTHGlRzcEi_JQz4Gv05Sz0gJ64vqJmDK-ystIYoDOCfnI0vR3QJ61O3Egi55dKpv4Hs15JMHppbYoANlUp3bzH87a73Pe-wfoeW6ygZnSZ9GjnI6RBOz6RCInXFTLkTL4Mv5TLXz2-5H6qFCHzLOw9YAhN0oehs-bZiZ06r8J40cjSpnYgwnuepsmqVA_ya6H_wypQacRl40zJM5WoCrnKUuLHPcgsxDg330BlDwmFpQGz__84eHkZBbFYOwffMIqXoL2f2RklBc8xcHro9klA8uJx8mQ39d3mPgC9cXNQ4FQJvVJLYIaUlX5qkRvPAyqFs4FZ7dp0gOAVEj75bkoZsKuNKWpSzDqefjwUtW1ax_zyjozZKJtghvt-b7rYiS2hzH0hF_tK8IsauBoEaE78qdWQBvx3Jb0IkSkK8Q5zuM2xgXNNsnXVpYGiuJDXCQdAHDRXcnjWSxmVgPMYVb3Yl5GSlA-jDRY4pbNE7_jsuPSlw-dLj7eKWb6iWfXkk3PvT6Yrz1w4JwtedsHwo93jxu_f_zvhm_4Q2CBWjFACjH7sKUKHC27rrneCpf3u2Fs5i1t-8Q9aTO_LdNBfsRw9D6cTusPXikjwqWu4nEDiF3_gYSu8Qws6Z6zaQOE9ZO9MOUjiop4S6ATgu20IDH14h2g4hgLz3PlqlXYeLuRilmr1mse00QhW__0403FBDEtdcILFsWPtxKcYrMQtaJm-ha2adohRQhwDTB6EQmcR4VRbZyR73V34Xk8EZ-RLLF1WS-aGNGAMpeQwPWH6T9iXEuMXnTjhIA7opVNi9SWV91hOnHJOdH0hcDEXr5U8edypwgHOUNqoMFwnIIXHdq40AgzDe4UwhI8Z6SDVMN1X1mj2jp2ISul9bFg7O8J7MrYxY1qm6u3BfbeiufDdO6xQOWDP3ulemJ2jy2daJA7MLMh4cU_lRPXcbhpD-QpHP-KceseOAQd-Yr825JnmZlZuh4-_g5XR7lvW_QgYDazJn2X42Az7l1uBAgbhh4itCDy-1xva74IR5t0LXdS4j_llEZJW5547rlWKHQAtPofsSbIuO5c3OiXikVn5KHBpzzOQSQfz2vC1zdRz0WE82rWk4XALJf5iyr7g3Sys8QuRM95aQAQVratthABxajvFBozQW6FASl4-426XGB76jaL5pV0v-Qys-DSw99U9IvcUwMTUwhM0JVPhMEc0K6wt2P7lAqCq6IH00GxbVvmE36jcL-5riuZZaaO_Dhx5brM_7-bmyKqMI_BHbgcYnznC0wXxCnDczc3z5pf0x7q9QAHFVJ9Ia2WcVn32mJ3LNc1q8kTVODpRT2j_jkMDHewl0jPLucoNqB_GsHUWyCtJdQxQklT1MkA__yv9eJFSymegCPpnH-j0WO1VMoC8LROUJknSe27Ft1a-imh7Jgw6QV10zymX9JlBBvzJdi_SCxGzEKsMoSFYEJ24vALFzag1LYUaTIUWSYeYU_EaaRDugJKxa669PalLh2q2qeR6mhDXoffto-DE80_-y_RrFmTxDnsAL1BY5HCQIVP7hbqeswb2I1PN5cIPlKbHh7mPfYqbzu1ou29D1o3dtRx395CvYN3_0XHWwO7BVzhYpEphhdLCRLROwqYf77qTU_H9KmfUn1YQSKq-OaBFkfxH2b3b4QoI8TL2PEHAxWYf8Mt5kExHi0mqEa4l_qWKnE01KYCphFzGIxFzU9pGCprbg0_um92I9rWf0l_3sqssZOPTK-5_h4AAEtgesZT313aBZ8H5EjL2MBnLCGhRJkK-SeZVDBdHnuGacslkSciJZp51_R1ijdNq8laxOBSCaDDt4rYfR2rZsNz-TAcwyFbzXPAT9k1kOkkpT-A7MFRzS61uYdP48vfgP6beyV886XScNrYcV9SYJzfgZ4EDtkbG-MmAFcvyoXQb5WoaKlQCglwjW8cA_C9RxNxYowAZm3ea9RywIP_TbQofAST_OsoHdOoNW3Ba6mHH_PFjS3f6Hzg8HLpMSdCjL0EeXkGRwSGg2pc_KOu_p6FZRxj5lL-_HegyKMM-FfPMfbt0tfuL9U0vwsUPGqTZDZ2hy8QtNbCtHgLMS3Pj4yyb2fmWGr5Aasa63KHgxo7mfxYO6NTar3LVyYeApjmWRxj4bv40IOuKT_05I9s7jFKee5fsPb_B_L9aQnA1PeIPwm_7SHBuvvev8HzF5oUJWko-Bv7279I-UxY5wRqjULT0Gllcw6O-qn2rxxx9_JhUJsX9z63hF7L7YdW9hZM0QNTyodfsw0L7q03Ho-OLs3jIm655hCvsoePCVPAd_i0cBUvqClThTVAY44GYCdkBAXKh-71v5PqWAUqIFY-eY3Xd7GBkEgfN3PtNARvrQaZQ5XPRTbg3RBpH7I-tmlHNTIgRlo4yuWd_R1IXvEYC-XlBEJ7SnsdBGGlpQpVTDlISlP3Jt6sbGpSNCREL7-I_KGDCHw1iL-9GYicgD5KjESKKIsykVCOOxGHnNFqZfgU-G3s2mDlwKBSSHU7q837udLHyJk-6n4DpW0CQNjUxX98C6l0ttqXE5EjhE8F_HcvepAMzhtTufONKypY3dBdUTAsuSjrjaueVwU8l8ydYh4pcD_T1yguLu94gjdW6J2HfB-ERbJevzLtz1RyTwfAp6huZN1lrlpkk7vvTa0Tc_2NWcrFFppJrluX70ky3lIRAnW8-pxmx1zQkaHF2yYOz5gvUzEHX60AF9vuefyBM6dSdMTHS7_4r-qQomGLTQJFqeqK1_PpKqtZtpLWL9jar5YeTfiGPsUMKB-1-ZtQyzhuq_xmQnew7HWwB2PgVw0AIYNgEsK_mR9QhasxibFjglKaQOA--VS8ERb8SY1Dnt9m8RKXTO73Ra1a1WQFATrwLNrlWeKrHkp2IJjSJk4mqn6SgMoVq7rZup_cB67RtMMgT9zqSaa40qsmB84dOsorMqxLLoZEUKAihzxW-Sczsofs30J_xz9WZJWGcR1ts2y1FM3C0acF49RE8B1DF3T1Cj466F-5ODhe-BmM2XOiDKKQzbU5bSTusfKP5S0iiJ8BdTfwTH5PByRzDJD1bfcunjlvgxDgxnCigW1yAXnvMq26cwX0L9q41ntAu5L0fvKUfZRo8cfkdIEWd4mTTYKJxQpnjNmz506clYODtrA5T37DXDeaCcl_IAFdqX_nTjuvBR8ey0mnRsB-KJZzm-kAfSqAE1NsAww8rLpX4LtsW4Cc2xfAdbEQbuXk6mSq0hSfFMXzLyxtwvirI2zngE1JLNLb-dgdh-zIkiKsjz_mC1wP8fUsxKMcQo_iWVBtQUF9KIALGBHF8bNKpELxGv8lsCuzInuVcLXgrvVTgRlxrrVoYenk2ShkMHlafkIaGEk1grS9x9_2FnrqTNHTchcM1PAFL9ikm0e_91-TZWOJC-66-0-4a-yzUTW4i8dwmOUTJ46LJxIIPivVg54qynFRp8sbp01W7vjGWE6joMVrYEoNsnK6SNh-SPbLguAZ-IQBpRS7TNuilQENyqD3UdwBsZEYFggN5TpB0FzbdHErDJ1MwfMwiE0Kler5Q-p_TwMAgyqm_0Jr9VyZ4eGrc5-WIJ86XvjmdNmOStYT_G7jGm5H7wmUZvSoQIv0p8M3hFJfon5XHkTREkyYCFZNGkFQj8MA1XMpR_NQCa7TlIsRy0eJPl17DG3S3jw4IVNd5wccdtbbII-lCtsZgyqK31QX_cEGg3ZEqaqvQoxH6Ve3bdxwcy-7QughbnrI4mPffoteqoSwEsMDYN3UAAuJW3q_eNh_2VsQY2lSBFO00ZukqLmaM6fyxzR0dW-V_VVPNG9jFyD1B5OIH95Lq5zp0NxLmvZGX3BOvXfRoJEOdOBFhgHRc_bCnNWSUmC2Nxlr8VcXyxHe-MrDnpt7q8H5ycKOSFzNejNDwtpvYvO3JFZX2-71yrebY5ZNJxIFIhVkaZ4B1bCUL5_xOXatIN_TvduyJBU71fwW0rEtzJNalp4OsVPNW38XSF6IbIMVf6cbrVAJY4XbtPeJMKmeVsbGVZFXNfsheiqzjHsHSBHMLon-0iEuZD35Ewc_nGiKreOOZDBajXAgByUtg7JVe4aE_4vSF1c-ZnyqrucSVc_CafIW6rm1rIkIkJ9wZ2Ugqnt6QLYLcJ3y3uHOg3xCn2fdYai-oOUeCc93fNg5cSgo2H69RfsOIuWY2ibuColCwMB9ZQ312IF0ngIPHiLh7AMel8PO_duD6eArb09Q1YEtWv8e32xZphc8UKITXENgmdFxW8oY-MOFCZfgmIwIn6ZcGHyiYILXSfD-5XJnX_aTK3BCcWGc6zmaoSAupZ-ztojcNWxp-NgUbaRZL7BmX_PHtAxVBM-DsNZE_FFCXUGIc50TwkAusNG1VS7MUIJ3v-MoAegjMciyBBy0xAypABHXoSjbEU1dRnJ_-_Wtlv17ar-BCRO0ezavvbZEIW0EIDPmIBGo5ASoqSLVAZHtGmqLMqSgf033PdzWsRvjAHqGNizKYMdSwStg3xc3Pq773R2lVQNnTyvytbrEJCAZX3ozD7wXCwBmGw7zypluhTckBScQq6mPssK_Xylq_ZJHNzWmgv3RFC6KWt9DSlzUDUoB6bAyjsoL19S9KqCOj5IB0ykPHMaGmSy3aX_mnQ8TR1obF9kdybfSXBvoarerQ-sNE6I8AJ2Zu5HX3hP9_QpAVCaxxv8t9neTadllqE2E3ncxtCxO2u3kZS5x6HESKzWgZ-XZC0B1j3O6ArZhg4-NdXfUDTwcfv95Mh45d4Gv04Qe3tzjLXPWMolAg9N4Qg93xSLH_l9rFWLfwLkXPanvjkcZkkZU6u81bgN2tD6yaGLekKRytceUx9eDoZ-zwId9nH8bC6k4YXaVkXULF9GiXWkJc9P11FnHiteEWXtVvX_NGpFZn_L926LumuYni8EEos7qnSSiWza9MREpKWmkDDa6Klj0GoWfSPwoC9v3W5_exeBm9tkraJb_cFO_ksrYttZEtTPcsW0An213jlLKW4hG-qhol2qie9X_DlHfHFIpvlX8YcU6V9eIcIK6QmYfyCkDO07_JXWNQzbP4sV96QbD-7H2hVRp2Vci5qT00WMKEMqDOF6Of53N-XhRzPYgTG9kXgWqCLjOPgzTIUppi5M6d5qvt8ezH6Y2IVH9wfg8IRzPtSw2GLnuq4xHT2JePZLhO25t-5MieJdyT422m7_4irnFEerkw9MsNbfPRGD44E-pia5Pv7K5Y7wHRWowllgupgrbs7oN7in32TIAv-zOK_7N7tWS_hGm7NOkxs5ZPIwfvbenpgYmpnu_UDSUyGAlO3miSYR2Uw6ylPLw96Ox-LN0wFmCGDP8nmgXhqrRzz8wgjJkf_QQltvr1Bu6NK5Dr__reT00rVFWpRwzyqIPchqoJVO9PB3AW4nq1HXEw8ynAcLGPSXKLx_lcDzlZUbuWDKdOI2ABQcD1Snmn6aZebu6v4K0tlQTmJttMOEbPzGeyeSsVw3Ra6tcN-jtH7sQzWp41xLz_sBoY5R_QbHXdHf01IoYWjCURfhZk9ZxJWcqMvdBMkCcTUMO6M9GmeDwY4UxgsWipTctT5D6-3DixQ_WIIgtZ-hY9tRMam53hOuRzsfxnCSW3cXDiIPK8IC5BDMTqYADNA4QGX5udL9v-I2l4ZimLGOE8pSDdSVc4KolsWRqMs33RfzVyR8FQ6IcrX-lUXXhm6xoHC4ey3mIYWkLeW9BHognT5BZrx88FovaJYSLzNO4J_nu5YuOJZRkinXOTHacDDCz2Ojs5NbnonoBbBv5ORT40x_HWi1qVPPtdRzYJ9IIgD2Oww24nt0uoxJYf_M4sMLH4c_WonpWXH9E0hzTaiq7CAimqukRar_yvmNeqiU40CGHTvAdp757CNenEOPvHSYPckeXxbbR7MnTPRM5rlWmx6JL_mstWbcYLlg599bgrjIByE3fD8_TiRwxR8xu1FPNwGckK9wi3jocsw8n_9iclDwqwbGtyVDCDveh5WTzqeCLiMerndlpG7Tn5dhzgF74S6C2hzIk3xGfy_9ZiDBcXxpD4uST4LnQlkNA2gj9nJTNEOUWAL4TZst_X8RfHxV7RqQXk-PlGbqHE-STueQRQtelOYVcMzRqgPzYMHdtOF7DOAalr2pmTnWZF_m9b42pFnOJaq6aJ6-oL-aAF-UFw-oESpiWJIgWIOmcuFBlkwCwuGONrtvABa8LNBUomuVG3gmhjUzKb3nE6dZwtBhUb9kVcXG1DNsHtJH8tQKnC_LPECRoXIHLbl2A9DMB1TLNd5TmOhyA6pgFVI7tAcfz9fcAVZ5vGrWj8PNQ5ZkKXi99x3rNDIl2Oz7cmw5nkoOIxgA-mdll7Tsqwrtiqd_1NFSRob4RLV932TfCvhW0zVjS4ParuEYQulw38QI3Ke6EzH-X3vY2UHsH98csyWFR8GSWlM2wMGOcpiP5x4u_vLw9Fi7ojDlfMVRelMvRrC496Fv1RqFzDURkSY8TmBzlPncAFSAtR-T3yje2RvgIZDIR0Knd5NsFOAUbjzzg-uI4E1sSOOlpZ27Bit6MBxlUQ9vTkD9jkD0OFA8kMi_5rvdMpdL2H_AigyqIG1844rMv3SwZ9Hr-hyERcUgq5DBihAPob9jLl9EN04Oo5iCvjtMPphHOeKx0xw34l7l0NtoR8GDDWliZEGG-HhcwPbunTN8zdFhRAGpNSfDH1d4pObprL7G_ecGtqfFQBDBZev_hCAihOp6KxTG8uDtaoi17rvC3qhQBMBev8FWdTG-Oic2iwZA_wVhXrvbTDwVrYLQ0jcMkAELRcuaSK_Qkz2h5Gl1bywioSIt2qmfnRXvv0n22hTyoTmAdEBoD8TVrkv_zRPfFWnUB2LC9XL_qY2o2SVirazD1KErWRA2YPec9Ot9rI5XifTvUH7yNXu1FBCYp5CpnD3mg5JA-C373vEivDtVJI2xVKsYtaU-grH10APSlP430JEglgcUgf90nb_0gSGic2-0MtssCeILHWRPYDC4IbM2Oi-MUk9VzjScteDJZcw2n_ckbrxQUdqcB1z1UhnQZuxTqcm3xqIsIF9XjPwd-sFPN_NB3ibVPaOVKFh6F_MqVJ-ZVxpXvYWFv-F0TLW4w4wBFhV8q81bX2Aufdff0IZVTERHn7_5Fx5SRN0PqtvuaEV6Ay0Ug8HIH1tnDSyFmeiVeRET6-ObWtismiBlcnkDR1Z3m4dgu8YITp8R45GWzg-5A-16yWxSAF7nku0p4PA_I34NDO999GIGX77619kD21JZeQ1cP9XYsxVfvFKmbaXwis2NdJBvL4ShKFTbAX2eAzc91Ir0V7fuC5b-30gxAKk0oEiwT2T-qIFU87QeydjSlUgXdrJrlmtheyTWgwxJFgOh4YAQryxytyPoX3GK48-EegIyTZrfFwvSpVVHoMatqjjbg06XDV8qcOvNu_sEA6cehtLw8Is1JsIQE4HsnwEyzuJrkZOPX6wttEt-D8YnfapXJ32SB68H196KZ_uWpnvJEvy1aO3vcdterM2Nqnc-Nw1dgBwrMBFejRfYuGLKx2CPPy6DXLpW_5yuW1psAA7NCNLeNSeyM-81JNYv4dqQVkPztd1X9SzQB-Jp_xfIOQs5PkLUUrmI287cKzXf6nVrKdfUsSQfkDaLNkqNLM9m1DvRXoOex2Xzw4LJac2u9QVj6C04fS5DPNELAQoc1jiSBZTFrpC_8iZVELAObmH8ljg8sbsma6DQok67ilO7kGQorN8oYcrVRHyA_h2Vr_YdpVtlEr4aPujb0BJdANdUhabyDiba0WcByQmgvfvpTqHvSL7u2tkFlRRpS6kwVgUj1l-j3Ra1I6oSmv-zqrEylvb-p-RwwJS-kIsPG6Hx3HWhj6TIqUD4EnM88vH5W2qU8Jjq9WTOtBHmgq2VGYkObwncCWDuCuzSxrN6mvL0gLM-NhKyI6AbpaNgyeFHUsasF9vOs2M80VMlph8OFnOOUDpaDb1GeSafLDOP5yn5pHgWsB-cLF022VqCz5lxhnbm27h4TZlFeCfKFqqOPpDyv8KsX7gJwScamsRPJUTtK3oafwW7xMAggCtZCOw9aWcAalYBwv1XSc-34dhUHRmbHZIRqbPlx1XclHFo43Uief0AOuKUKYuHuCvxGeBopR7915TJizE4d-84VxN5Q6RJ9Ijs84frxEM6wCW4gDP1QZIz0Xk3Ft1g7A5sGnPxlVzej-8Yc_r2eJpAqzDUA64qOw2UAVwtrzVACKV3Z6rfcYSgkcLH0kJZL-ijgZQtuFETzdZWtt__0j2n7zVbOfcTDpw3fPWDS0TbaB5nYzMGE_ZlhCuj5_3a-ag6GU0ybVwUK-e1REUv-WkNecN9WHWiZsjpyOXmqGvEF32G1Orb3WfNC8gqhQHWDE4NIGuZR8Aj7x1OpmwRntfkVeemEsIslAN07n8rV_fQbtKlLg3UTnfY9MT8hlwriNU7PUNVwjolYSb2SL3SEKQfw0O7XRRx9Ku-eaazA7bXtJ3CNJRf0EwFTTpVvgiUFBhfCpaROsiXLozAe6dCEkdKN8F5qEPD6cUQ9QVig2y8KPpB7KTokxtwYNd5uIxPPSEd_syI9qf98TmvSmPNTWrTxEQupUzXuqkwhDDphKSq4TYCdTyLQyAEFK5D4JikCTnQNluUv0oGFpffGLr6GLCeE_k937oz56kcyBY8_M1lFG3iM6vjYFFLEkkJQZcQWqkFqtUDTJxXGPD5leFJV31SHph5jcoWKh--VQGu6U_O03lbRGaHRAVk5lFPGbfO4pQ3oJPNm7DktJjX7_eFKtY_FPhfZTuaTuGm8R3QPjETlpTGTEIZCT5sQvTI3U8PGyxdx1vsKnhqRSsOKuSja6ipM6I1jLD_1xML9IwkhubTvIN7OR5B-nzPg1m4g2GLKTed9bcq5p60fIkL5HwTs9GXX-uz_fdAcQZBqzXr-PA3qbDe2dgnvY9jDHcvsOq7ubSfXlWFx1A4D-g6eiJb3KbM35yyD-NHldtgLfqgQlvix8wjhOhq58GNKAQGr_AL2pRUOkU2i_8Y46QmN_KruM9rewbIdF7InxA7ZJoF2ZJ4LFssFOjhM70OuBtG8a1XpiwIzYYmjRF_I0rRdqRuSMimYqY-LPZjPBZUcblG1gUymPrFoWhG4m01mv_ueHr31o6jlznqdg-Z0QvUQWd-P4LlojZyFL5rSoRAPCG9-FOZ-R799USetpuDZ24f09hSbzQpIeaUsZLkAPWxqT7P2y6PJWkrFP5bEopNd08pdhJ7buf5Bo-uEsYcw1ZhKtparjnIcHBdxwaM_DsmBzRywInjk9tk7o7UHPDl6_TjV6zuFO96W8yPANpHQ92GN1zknF4G9w472D5oL66IFyfZEEmDTyBwPNoET4EDNz0JAA_J5OR-HjuLN2ZYN7lgfPKgB180zg-teLLyJMWDKUgePJvbfpEitgHRIcmp_l2YkfsUcGtaOAAJ5KLe3elvd9S_s3v_1FH9pPFhlVcp22CWe8umGg7of1seY-CLNYjTvh4v6CD3Sb2d3M9gWNuOV04hQnQq6N0W6cRkU4w9ugT2uF8Beujgh3esQCwOg4gMP21kjY_y4jawj_PFnuhmAVxEFUxp_1GPDGkitl6kX730m414iBkXVOB3VkC8jJzXRhrAmMlxRGmtFZLuoI5iLoSgpBHeekODN1aNUt6w5QM29O61KX9hXRaQaBf7IdEMY2LqEFz29Zzo-zQYnCbBpFQyqLcFTcY3zJ8pO7t7nfz6UUbbSoSAnWeycPMPA0B562K-LrJASEJGk6RN38KLCy8G1TMr108TFU54TDtn3uHqzWC_e85KwKsHsBj9vAc3lQ_sGuj8A9hEy0iStJzmATGziK7LqNqglAVniJG6K0z6nGckane3ZgAzBSI1fi1CAVJQtOQNtqaJ5A9SdLjbDguwrIF25YoBgkP_fMononLdDvwdyBGqkN1ehKdGorxcTR4VLujKx7uUaVfYMmVrGBdbRfdsy4ZXvSohWK5FVQgEL2w9JSgGxnMGaqJppuYu7_Dae_yH9dC-BuCXETD88Fc1uAy191V5HBeEm8eLDihOY5Yp5JG9HYShhHKP3x9OuAUYhzzd48OYbmuQx_xct0CH6oIDeNu4OLHkD_sfmR1l1ZgW2MClPP9EkVDoD1kTmz9zcreNAmAgNcLOrAj0qNmOiTrK84Db5kViAA0OlA0zdBubxUEDOO6wr-0GmDsdUlygoHPP3JIDFr4eLJwWHak1nABczqohXWTWGwUzD6pzd1RgJkb7WTf0j2DRwJH7TX2U2tZs6f4t30UhcdN6NopOafORlZhE2s5Y_64FOAq2sCK149ZGW4yA2PJzD3P7qTqS-TyRbUv4m19_rD1TFJmwzJGu4d42m_4AlHJOK9LbeJBrcwvN6jAfjR8wrtr4r_6-3SWttp2tWoCHhaeal_xzdHt4xxwsx08rMQJ8f-uVQJ4BxgcfPp9BsCYMhA7hNQUOaIGEtfnoW-umd5NvhgTWba0rwjtQf_Wq0QycN8y__6jdn43U2NKh45C5D64G5cPp9Xg6YomxtSy_vhDCfcee7MnW_0-3G3RTnOe-ihrAwPo7izlHJLAgbLrMmHb8AXjGYGIivq3iu3DOsG4d746MA0yZWLgmokgwaY9ONdpj4kZ0s1rcrAieIaNJZHzxoI5o_tYqOHm-E4RPz3YvrpAkmBWTbBhP6YZTA7TUYpwhZoka5TeMmNxn8877Um8eglUb7mkXohtwYstqzMyvuWenONLGr4AVV2Y0BilPS-7pZqhKhECzpNQQDmDEXdhEy2Yb2FDovDi8dxrjd4Me4EopIDXt3Wt86JVdKQB96FKQFZUqkMkIvD4aLrVLVJHdTLRIykMez3UPdN7HUjyjiVd0ZceO0dDUQT7N03u0HSflURrFbZz3pbfwoxm7VBapTdBp-wly-bxvoI4fCtp77MavojWUhi9r5N7WBtkKWyUcdmTBWbppeNrqEsb6i0FlpgpNkGE2nEtccVSy_B_fshv6kziHfcnUJGby0dLvDEdv3zSRJ3lnrAud_zN6uaiT3Kb1ECXUahyLaoI979bXID51IL4Qx8iMlq6jKp_XtB20dm4q6ZauvhI2VZDITWljQNgHp5ZwZu-u6bYERplPh4Ufqtl8wfhIEjXbvrdTvSi5hsq1HXpOiI3vVoeCBUkidDOz-hC2nDsWr2_aH9qtp6RLeUHviIuXx3v_0oHaTCasrEToPMMW5u2uHL-NFcJd_Nhqjbl8xEWB2oBRoVCnijNfegbaE2UfVxFmgwot5g5YAdU1SrVnFR5qz1pQVE7pC_IBsWcvjAr99DOlRCNaFRfemOBkLh3VL7IkRSG0BQllSoYE9uXULLs5wSW1Q884FxnNo4vbEraRjT2qgBVwW6E3DfmernHlwCYunWJFYuGgSNxnVp2sFAp9mDlgO0u47F3wFw8JrvUzpAePThQNte6Z00pBIYzo0l3jMRDNPNhKSR6pqfJ2CJ_TLl7C5OtsNbz-zE5Zf0w.VJpDBltIbUuI9tE2vGEoig"
                    }
                }
            ]
        }
    }
}