[
    {
        "@context": "http://schema.org",
        "@type": "Person",
        "familyName": "Potter"
    },
    {
        "@context": "http://schema.org",
        "@type": "Person",
        "givenName": "Harry James"
    },
    {
        "@context": "http://schema.org",
        "@type": "Person",
        "birthDate": "1980-07-31"
    },
    {
        "@context": "http://schema.org",
        "@type": "Person",
        "address": {
            "@type": "PostalAddress",
            "streetAddress": "4 Privet Drive"
        }
    },
    {
        "@context": "http://schema.org",
        "@type": "Person",
        "address": {
            "@type": "PostalAddress",
            "addressLocality": "Little Whinging"
        }
    },
    {
        "@context": "http://schema.org",
        "@type": "Person",
        "address": {
            "@type": "PostalAddress",
            "postalCode": "BS13 9RN"
        }
    },
    {
        "@context": "http://schema.org",
        "@type": "Person",
        "address": {
            "@type": "PostalAddress",
            "addressRegion": "Surrey"
        }
    },
    {
        "@context": "http://schema.org",
        "@type": "Person",
        "address": {
            "@type": "PostalAddress",
            "addressCountry": "United Kingdom"
        }
    },
    {
        "@context": "http://schema.org",
        "@type": "Person",
        "address": {
            "@type": "PostalAddress",
            "telephone": "+44 555 325 1464"
        }
    }
]